 0 0
 1.95694716242661e-06 1217.17232505618
 3.91389432485323e-06 2372.23899864422
 5.87084148727984e-06 3488.71454450396
 7.82778864970646e-06 4574.9482712018
 9.78473581213307e-06 5635.74550620525
 1.17416829745597e-05 6674.33563690617
 1.36986301369863e-05 7693.08030493471
 1.56555772994129e-05 8693.80242972713
 1.76125244618395e-05 9677.96319904463
 1.95694716242661e-05 10646.7670089569
 2.15264187866928e-05 11601.2281951022
 2.34833659491194e-05 12542.2157769425
 2.5440313111546e-05 13470.4847351368
 2.73972602739726e-05 14386.6986230952
 2.93542074363992e-05 15291.4463738815
 3.13111545988258e-05 16185.2550873578
 3.32681017612524e-05 17068.5999543071
 3.52250489236791e-05 17941.912091793
 3.71819960861057e-05 18805.5848225787
 3.91389432485323e-05 19659.9787742152
 4.10958904109589e-05 20505.4260682425
 4.30528375733855e-05 21342.2337978938
 4.50097847358121e-05 22170.6869422842
 4.69667318982387e-05 22991.0508291218
 4.89236790606654e-05 23803.5732319207
 5.0880626223092e-05 24608.4861685027
 5.28375733855186e-05 25406.0074532539
 5.47945205479452e-05 26196.342044765
 5.67514677103718e-05 26979.6832222069
 5.87084148727984e-05 27756.21361738
 6.06653620352251e-05 28526.1061243818
 6.26223091976517e-05 29289.5247048931
 6.45792563600783e-05 30046.6251039542
 6.65362035225049e-05 30797.5554885958
 6.84931506849315e-05 31542.4570196638
 7.04500978473581e-05 32281.4643655379
 7.24070450097847e-05 33014.7061650976
 7.43639921722114e-05 33742.3054461843
 7.6320939334638e-05 34464.380004896
 7.82778864970646e-05 35181.0427502891
 8.02348336594912e-05 35892.4020184256
 8.21917808219178e-05 36598.5618591722
 8.41487279843444e-05 37299.6222987063
 8.6105675146771e-05 37995.6795803009
 8.80626223091977e-05 38686.8263856374
 9.00195694716243e-05 39373.1520386172
 9.19765166340509e-05 40054.7426934041
 9.39334637964775e-05 40731.6815082268
 9.58904109589041e-05 41404.0488062903
 9.78473581213307e-05 42071.9222249974
 9.98043052837573e-05 42735.3768545423
 0.000101761252446184 43394.4853668275
 0.000103718199608611 44049.3181355502
 0.000105675146771037 44699.9433482182
 0.000107632093933464 45346.4271107746
 0.00010958904109589 45988.8335454456
 0.000111545988258317 46627.2248823602
 0.000113502935420744 47261.6615454416
 0.00011545988258317 47892.2022330193
 0.000117416829745597 48518.9039935694
 0.000119373776908023 49141.8222969538
 0.00012133072407045 49761.011101494
 0.000123287671232877 50376.5229171857
 0.000125244618395303 50988.4088653334
 0.00012720156555773 51596.7187348601
 0.000129158512720157 52201.5010355252
 0.000131115459882583 52802.8030482639
 0.00013307240704501 53400.670872844
 0.000135029354207436 53995.1494730205
 0.000136986301369863 54586.2827193522
 0.00013894324853229 55174.1134298342
 0.000140900195694716 55758.6834084845
 0.000142857142857143 56340.0334820169
 0.000144814090019569 56918.2035347165
 0.000146771037181996 57493.2325416323
 0.000148727984344423 58065.1586001858
 0.000150684931506849 58634.0189602932
 0.000152641878669276 59199.8500530877
 0.000154598825831703 59762.6875183249
 0.000156555772994129 60322.5662305463
 0.000158512720156556 60879.5203240731
 0.000160469667318982 61433.5832168942
 0.000162426614481409 61984.7876335126
 0.000164383561643836 62533.165626805
 0.000166340508806262 63078.7485989497
 0.000168297455968689 63621.5673214724
 0.000170254403131115 64161.6519544568
 0.000172211350293542 64699.0320649636
 0.000174168297455969 65233.7366446996
 0.000176125244618395 65765.7941269748
 0.000178082191780822 66295.2324029834
 0.000180039138943249 66822.0788374443
 0.000181996086105675 67346.3602836297
 0.000183953033268102 67868.103097816
 0.000185909980430528 68387.3331531816
 0.000187866927592955 68904.0758531798
 0.000189823874755382 69418.3561444117
 0.000191780821917808 69930.1985290227
 0.000193737769080235 70439.627076644
 0.000195694716242661 70946.6654359014
 0.000197651663405088 71451.3368455101
 0.000199608610567515 71953.6641449751
 0.000201565557729941 72453.6697849139
 0.000203522504892368 72951.3758370195
 0.000205479452054795 73446.8040036783
 0.000207436399217221 73939.9756272591
 0.000209393346379648 74430.9116990859
 0.000211350293542074 74919.6328681101
 0.000213307240704501 75406.1594492928
 0.000215264187866928 75890.5114317103
 0.000217221135029354 76372.7084863951
 0.000219178082191781 76852.7699739213
 0.000221135029354207 77330.7149517467
 0.000223091976516634 77806.562181321
 0.000225048923679061 78280.3301349688
 0.000227005870841487 78752.0370025569
 0.000228962818003914 79221.7006979548
 0.000230919765166341 79689.3388652955
 0.000232876712328767 80154.9688850456
 0.000234833659491194 80618.6078798906
 0.00023679060665362 81080.2727204439
 0.000238747553816047 81539.9800307854
 0.000240704500978474 81997.7461938355
 0.0002426614481409 82453.5873565726
 0.000244618395303327 82907.5194350978
 0.000246575342465753 83359.5581195529
 0.00024853228962818 83809.7188788987
 0.000250489236790607 84258.0169655561
 0.000252446183953033 84704.4674199164
 0.00025440313111546 85149.085074726
 0.000256360078277887 85591.8845593479
 0.000258317025440313 86032.8803039068
 0.00026027397260274 86472.0865433195
 0.000262230919765166 86909.5173212162
 0.000264187866927593 87345.1864937562
 0.00026614481409002 87779.1077333408
 0.000268101761252446 88211.2945322272
 0.000270058708414873 88641.7602060475
 0.000272015655577299 89070.5178972351
 0.000273972602739726 89497.5805783611
 0.000275929549902153 89922.9610553861
 0.000277886497064579 90346.6719708261
 0.000279843444227006 90768.7258068395
 0.000281800391389432 91189.1348882349
 0.000283757338551859 91607.9113854032
 0.000285714285714286 92025.067317177
 0.000287671232876712 92440.6145536177
 0.000289628180039139 92854.5648187352
 0.000291585127201566 93266.9296931399
 0.000293542074363992 93677.7206166309
 0.000295499021526419 94086.9488907202
 0.000297455968688845 94494.6256810981
 0.000299412915851272 94900.762020038
 0.000301369863013699 95305.368808745
 0.000303326810176125 95708.456819649
 0.000305283757338552 96110.0366986432
 0.000307240704500978 96510.118967272
 0.000309197651663405 96908.7140248668
 0.000311154598825832 97305.8321506331
 0.000313111545988258 97701.48350569
 0.000315068493150685 98095.6781350636
 0.000317025440313112 98488.4259696344
 0.000318982387475538 98879.7368280418
 0.000320939334637965 99269.6204185458
 0.000322896281800391 99658.0863408471
 0.000324853228962818 100045.144087868
 0.000326810176125245 100430.803047491
 0.000328767123287671 100815.072504267
 0.000330724070450098 101197.961641076
 0.000332681017612524 101579.479540759
 0.000334637964774951 101959.635187716
 0.000336594911937378 102338.437469463
 0.000338551859099804 102715.895178164
 0.000340508806262231 103092.017012123
 0.000342465753424658 103466.811577252
 0.000344422700587084 103840.287388503
 0.000346379647749511 104212.452871274
 0.000348336594911937 104583.31636278
 0.000350293542074364 104952.886113407
 0.000352250489236791 105321.170288024
 0.000354207436399217 105688.176967281
 0.000356164383561644 106053.914148875
 0.00035812133072407 106418.38974879
 0.000360078277886497 106781.611602511
 0.000362035225048924 107143.587466223
 0.00036399217221135 107504.325017973
 0.000365949119373777 107863.83185882
 0.000367906066536204 108222.115513955
 0.00036986301369863 108579.183433806
 0.000371819960861057 108935.042995115
 0.000373776908023483 109289.701502
 0.00037573385518591 109643.166186989
 0.000377690802348337 109995.444212048
 0.000379647749510763 110346.54266957
 0.00038160469667319 110696.468583365
 0.000383561643835616 111045.228909618
 0.000385518590998043 111392.830537834
 0.00038747553816047 111739.280291766
 0.000389432485322896 112084.584930322
 0.000391389432485323 112428.751148462
 0.00039334637964775 112771.785578073
 0.000395303326810176 113113.694788828
 0.000397260273972603 113454.485289033
 0.000399217221135029 113794.163526454
 0.000401174168297456 114132.735889136
 0.000403131115459883 114470.208706199
 0.000405088062622309 114806.588248628
 0.000407045009784736 115141.880730039
 0.000409001956947162 115476.092307445
 0.000410958904109589 115809.229081993
 0.000412915851272016 116141.297099703
 0.000414872798434442 116472.302352183
 0.000416829745596869 116802.250777334
 0.000418786692759295 117131.148260052
 0.000420743639921722 117459.000632903
 0.000422700587084149 117785.813676795
 0.000424657534246575 118111.593121643
 0.000426614481409002 118436.34464701
 0.000428571428571429 118760.073882749
 0.000430528375733855 119082.786409629
 0.000432485322896282 119404.487759949
 0.000434442270058708 119725.183418146
 0.000436399217221135 120044.878821389
 0.000438356164383562 120363.579360166
 0.000440313111545988 120681.290378863
 0.000442270058708415 120998.017176323
 0.000444227005870842 121313.765006412
 0.000446183953033268 121628.539078565
 0.000448140900195695 121942.344558321
 0.000450097847358121 122255.186567862
 0.000452054794520548 122567.070186527
 0.000454011741682975 122878.000451334
 0.000455968688845401 123187.982357481
 0.000457925636007828 123497.020858843
 0.000459882583170254 123805.120868467
 0.000461839530332681 124112.287259051
 0.000463796477495108 124418.524863418
 0.000465753424657534 124723.838474986
 0.000467710371819961 125028.232848225
 0.000469667318982387 125331.712699113
 0.000471624266144814 125634.282705581
 0.000473581213307241 125935.947507952
 0.000475538160469667 126236.711709371
 0.000477495107632094 126536.579876238
 0.000479452054794521 126835.556538618
 0.000481409001956947 127133.646190661
 0.000483365949119374 127430.853291006
 0.0004853228962818 127727.182263184
 0.000487279843444227 128022.637496009
 0.000489236790606654 128317.22334397
 0.00049119373776908 128610.944127613
 0.000493150684931507 128903.804133919
 0.000495107632093933 129195.807616675
 0.00049706457925636 129486.958796843
 0.000499021526418787 129777.261862918
 0.000500978473581213 130066.720971283
 0.00050293542074364 130355.340246565
 0.000504892367906067 130643.123781977
 0.000506849315068493 130930.075639657
 0.00050880626223092 131216.199851009
 0.000510763209393346 131501.500417029
 0.000512720156555773 131785.981308633
 0.0005146771037182 132069.64646698
 0.000516634050880626 132352.499803788
 0.000518590998043053 132634.545201647
 0.000520547945205479 132915.786514326
 0.000522504892367906 133196.227567079
 0.000524461839530333 133475.872156943
 0.000526418786692759 133754.724053036
 0.000528375733855186 134032.786996843
 0.000530332681017613 134310.064702512
 0.000532289628180039 134586.56085713
 0.000534246575342466 134862.279121006
 0.000536203522504892 135137.223127947
 0.000538160469667319 135411.396485529
 0.000540117416829746 135684.802775365
 0.000542074363992172 135957.445553373
 0.000544031311154599 136229.328350032
 0.000545988258317026 136500.454670644
 0.000547945205479452 136770.827995587
 0.000549902152641879 137040.451780566
 0.000551859099804305 137309.32945686
 0.000553816046966732 137577.464431566
 0.000555772994129159 137844.860087842
 0.000557729941291585 138111.519785143
 0.000559686888454012 138377.446859456
 0.000561643835616438 138642.644623533
 0.000563600782778865 138907.116367118
 0.000565557729941292 139170.865357175
 0.000567514677103718 139433.894838108
 0.000569471624266145 139696.208031984
 0.000571428571428571 139957.808138747
 0.000573385518590998 140218.698336436
 0.000575342465753425 140478.881781393
 0.000577299412915851 140738.361608474
 0.000579256360078278 140997.140931255
 0.000581213307240704 141255.222842236
 0.000583170254403131 141512.610413042
 0.000585127201565558 141769.306694619
 0.000587084148727984 142025.314717435
 0.000589041095890411 142280.637491671
 0.000590998043052838 142535.278007412
 0.000592954990215264 142789.239234834
 0.000594911937377691 143042.524124397
 0.000596868884540117 143295.135607023
 0.000598825831702544 143547.076594279
 0.000600782778864971 143798.34997856
 0.000602739726027397 144048.958633264
 0.000604696673189824 144298.905412966
 0.000606653620352251 144548.193153597
 0.000608610567514677 144796.824672609
 0.000610567514677104 145044.802769146
 0.00061252446183953 145292.130224212
 0.000614481409001957 145538.809800839
 0.000616438356164384 145784.844244241
 0.00061839530332681 146030.236281987
 0.000620352250489237 146274.988624151
 0.000622309197651663 146519.103963474
 0.00062426614481409 146762.584975516
 0.000626223091976517 147005.434318816
 0.000628180039138943 147247.654635037
 0.00063013698630137 147489.24854912
 0.000632093933463797 147730.218669431
 0.000634050880626223 147970.567587908
 0.00063600782778865 148210.297880206
 0.000637964774951076 148449.412105842
 0.000639921722113503 148687.912808331
 0.00064187866927593 148925.802515333
 0.000643835616438356 149163.083738788
 0.000645792563600783 149399.758975051
 0.000647749510763209 149635.830705032
 0.000649706457925636 149871.301394325
 0.000651663405088063 150106.173493342
 0.000653620352250489 150340.449437445
 0.000655577299412916 150574.131647073
 0.000657534246575342 150807.222527871
 0.000659491193737769 151039.724470818
 0.000661448140900196 151271.639852347
 0.000663405088062622 151502.971034474
 0.000665362035225049 151733.720364916
 0.000667318982387476 151963.890177215
 0.000669275929549902 152193.482790855
 0.000671232876712329 152422.500511381
 0.000673189823874755 152650.945630517
 0.000675146771037182 152878.820426281
 0.000677103718199609 153106.127163097
 0.000679060665362035 153332.86809191
 0.000681017612524462 153559.0454503
 0.000682974559686888 153784.661462589
 0.000684931506849315 154009.718339951
 0.000686888454011742 154234.218280522
 0.000688845401174168 154458.163469507
 0.000690802348336595 154681.556079283
 0.000692759295499022 154904.398269507
 0.000694716242661448 155126.692187218
 0.000696673189823875 155348.439966941
 0.000698630136986301 155569.643730786
 0.000700587084148728 155790.305588552
 0.000702544031311155 156010.427637823
 0.000704500978473581 156230.011964067
 0.000706457925636008 156449.060640735
 0.000708414872798434 156667.575729356
 0.000710371819960861 156885.559279632
 0.000712328767123288 157103.013329531
 0.000714285714285714 157319.939905386
 0.000716242661448141 157536.341021979
 0.000718199608610568 157752.218682639
 0.000720156555772994 157967.574879329
 0.000722113502935421 158182.411592735
 0.000724070450097847 158396.730792359
 0.000726027397260274 158610.534436601
 0.000727984344422701 158823.824472849
 0.000729941291585127 159036.602837566
 0.000731898238747554 159248.871456369
 0.00073385518590998 159460.632244121
 0.000735812133072407 159671.88710501
 0.000737769080234834 159882.637932631
 0.00073972602739726 160092.886610069
 0.000741682974559687 160302.635009979
 0.000743639921722113 160511.884994667
 0.00074559686888454 160720.638416169
 0.000747553816046967 160928.897116328
 0.000749510763209393 161136.662926873
 0.00075146771037182 161343.937669496
 0.000753424657534247 161550.723155926
 0.000755381604696673 161757.021188007
 0.0007573385518591 161962.833557772
 0.000759295499021526 162168.162047514
 0.000761252446183953 162373.008429865
 0.00076320939334638 162577.374467861
 0.000765166340508806 162781.261915021
 0.000767123287671233 162984.672515411
 0.000769080234833659 163187.608003721
 0.000771037181996086 163390.07010533
 0.000772994129158513 163592.060536377
 0.000774951076320939 163793.581003829
 0.000776908023483366 163994.633205549
 0.000778864970645793 164195.218830359
 0.000780821917808219 164395.339558115
 0.000782778864970646 164594.997059765
 0.000784735812133072 164794.192997415
 0.000786692759295499 164992.929024399
 0.000788649706457926 165191.206785335
 0.000790606653620352 165389.027916196
 0.000792563600782779 165586.394044366
 0.000794520547945206 165783.306788707
 0.000796477495107632 165979.767759618
 0.000798434442270059 166175.778559095
 0.000800391389432485 166371.340780795
 0.000802348336594912 166566.456010093
 0.000804305283757339 166761.125824141
 0.000806262230919765 166955.351791928
 0.000808219178082192 167149.135474339
 0.000810176125244618 167342.478424207
 0.000812133072407045 167535.38218638
 0.000814090019569472 167727.848297768
 0.000816046966731898 167919.878287404
 0.000818003913894325 168111.473676499
 0.000819960861056752 168302.635978495
 0.000821917808219178 168493.366699122
 0.000823874755381605 168683.667336451
 0.000825831702544031 168873.539380946
 0.000827788649706458 169062.984315521
 0.000829745596868885 169252.003615588
 0.000831702544031311 169440.59874911
 0.000833659491193738 169628.771176658
 0.000835616438356164 169816.522351452
 0.000837573385518591 170003.853719423
 0.000839530332681018 170190.766719255
 0.000841487279843444 170377.262782437
 0.000843444227005871 170563.343333314
 0.000845401174168297 170749.009789134
 0.000847358121330724 170934.263560099
 0.000849315068493151 171119.106049409
 0.000851272015655577 171303.538653313
 0.000853228962818004 171487.562761155
 0.000855185909980431 171671.179755421
 0.000857142857142857 171854.391011785
 0.000859099804305284 172037.197899155
 0.00086105675146771 172219.601779719
 0.000863013698630137 172401.604008991
 0.000864970645792564 172583.205935852
 0.00086692759295499 172764.408902599
 0.000868884540117417 172945.214244987
 0.000870841487279843 173125.623292273
 0.00087279843444227 173305.637367258
 0.000874755381604697 173485.257786331
 0.000876712328767123 173664.485859511
 0.00087866927592955 173843.322890491
 0.000880626223091977 174021.770176676
 0.000882583170254403 174199.829009228
 0.00088454011741683 174377.500673105
 0.000886497064579256 174554.786447105
 0.000888454011741683 174731.687603899
 0.00089041095890411 174908.205410079
 0.000892367906066536 175084.341126195
 0.000894324853228963 175260.096006792
 0.000896281800391389 175435.471300452
 0.000898238747553816 175610.468249831
 0.000900195694716243 175785.088091698
 0.000902152641878669 175959.332056974
 0.000904109589041096 176133.201370766
 0.000906066536203523 176306.697252411
 0.000908023483365949 176479.820915507
 0.000909980430528376 176652.573567951
 0.000911937377690802 176824.95641198
 0.000913894324853229 176996.9706442
 0.000915851272015656 177168.617455628
 0.000917808219178082 177339.898031724
 0.000919765166340509 177510.813552429
 0.000921722113502935 177681.365192197
 0.000923679060665362 177851.554120032
 0.000925636007827789 178021.381499521
 0.000927592954990215 178190.848488871
 0.000929549902152642 178359.956240938
 0.000931506849315068 178528.705903266
 0.000933463796477495 178697.098618115
 0.000935420743639922 178865.135522499
 0.000937377690802348 179032.817748215
 0.000939334637964775 179200.14642188
 0.000941291585127202 179367.122664956
 0.000943248532289628 179533.74759379
 0.000945205479452055 179700.022319641
 0.000947162426614481 179865.947948712
 0.000949119373776908 180031.525582184
 0.000951076320939335 180196.756316242
 0.000953033268101761 180361.641242111
 0.000954990215264188 180526.181446083
 0.000956947162426614 180690.37800955
 0.000958904109589041 180854.232009031
 0.000960861056751468 181017.744516203
 0.000962818003913894 181180.916597933
 0.000964774951076321 181343.749316303
 0.000966731898238748 181506.243728643
 0.000968688845401174 181668.400887556
 0.000970645792563601 181830.221840952
 0.000972602739726027 181991.70763207
 0.000974559686888454 182152.859299511
 0.000976516634050881 182313.677877265
 0.000978473581213307 182474.164394737
 0.000980430528375734 182634.319876776
 0.00098238747553816 182794.145343703
 0.000984344422700587 182953.641811335
 0.000986301369863014 183112.810291017
 0.00098825831702544 183271.651789643
 0.000990215264187867 183430.167309687
 0.000992172211350294 183588.357849228
 0.00099412915851272 183746.224401974
 0.000996086105675147 183903.76795729
 0.000998043052837573 184060.989500225
 0.001 184217.890011533
