# Created by Octave 4.0.0, Tue Jun 04 12:50:33 2019 CEST <chetan@chetan-TTL-TEKNOPRO>
# name: E
# type: matrix
# rows: 74
# columns: 10
 0.15 6.999999616438623 0 4.942576960130707e-14 0 0.04999999726027601 0 198.7069140515283 0 1
 3.45 6.999935864190733 0 -6.792319630161154 0 0.05000247086055604 0 171.839368187189 0 1
 6.749999999999999 7.000127805443454 0 -21.13314570150854 0 0.05000064688815015 0 208.297152098248 0 1
 10.05 6.999751307642843 0 -20.02271611024954 0 0.05001320765974165 0 140.3282067654642 0 1
 13.35 6.99995703941326 0 -22.33476344535324 0 0.05000213535640112 0 194.9486477717629 0 1
 16.65 6.99973884893735 0 -8.863090603854751 0 0.05000629809098453 0 151.2172079777867 0 1
 19.95 6.999782138845474 0 -1.790076693911054 0 0.0500038215623977 0 219.8219750476046 0 1
 23.25 6.999887450890053 0 12.83558072382944 0 0.05000235222828071 0 150.4733750938373 0 1
 26.55 6.999725180165725 0 19.45968014882652 0 0.05000268352611216 0 211.3680605429266 0 1
 29.85 7.000066101563653 0 8.909874675711539 0 0.0500139735209459 0 172.0094000308101 0 1
 33.15000000000001 6.999835446316848 0 15.75053115244295 0 0.05000531802680061 0 215.3342875774809 0 1
 36.45 7.000164438411297 0 10.31771591845198 0 0.05001367414969294 0 161.3356755831333 0 1
 39.75 7.000037302671974 0 15.15661648168728 0 0.05000882115940854 0 224.5992374113722 0 1
 43.05 7.00008259160601 0 9.529292369689625 0 0.0500047553221707 0 136.5037058506851 0 1
 46.34999999999999 7.000172483459684 0 4.28096576332867 0 0.05001021011548226 0 198.6947174306882 0 1
 49.64999999999999 6.99990048638432 0 -5.831762699349516 0 0.05001111773925965 0 198.6778658408608 0 1
 52.94999999999999 7.000084117988856 0 4.747059447586788 0 0.05000517916659918 0 203.7195933313891 0 1
 56.24999999999999 6.999735172961207 0 11.84571362530596 0 0.05000672065864809 0 174.436640692984 0 1
 59.54999999999998 6.999916460649087 0 8.412181000634494 0 0.05003291645413756 0 207.1223731575753 0 1
 62.84999999999998 6.99981598000644 0 -4.703499010746252 0 0.05001189660961377 0 161.0814578570105 0 1
 66.14999999999998 6.999779753224384 0 -15.53322858840814 0 0.05005124182617174 0 220.2517382621646 0 1
 69.44999999999997 6.999991439263002 0 -24.86579502957229 0 0.05006583355956967 0 173.2568007270474 0 1
 72.74999999999997 6.999831200545077 0 -1.813069814029581 0 0.05008106199650619 0 221.1926852035235 0 1
 76.04999999999997 7.000152729212695 0 -5.967372598833292 0 0.05004421146634835 0 154.0189053692594 0 1
 79.34999999999997 6.999970574936443 0 1.770151063863207 0 0.05011379228613171 0 206.0806458395396 0 1
 82.64999999999996 7.000173424387285 0 9.905334630981729 0 0.05008082402747487 0 144.0136378967559 0 1
 85.94999999999996 7.00012866352615 0 -16.51463001303784 0 0.05006349417094078 0 211.1820525948348 0 1
 89.24999999999996 7.0000247475549 0 -21.64787496642564 0 0.05005737791935443 0 149.4876345302718 0 1
 92.54999999999995 7.000369031261696 0 17.63830106553237 0 0.05005098477157269 0 242.0130799391739 0 1
 95.84999999999995 6.999806641736549 0 -5.450479773647833 0 0.05004840679541575 0 144.0181466947943 0 1
 99.14999999999995 7.00002243977035 0 2.889192711903924 0 0.05009004548077037 0 213.4285540274975 0 1
 102.4499999999999 6.999726750952128 0 3.099236752082006 0 0.05013989416185562 0 159.5727161753465 0 1
 105.7499999999999 6.999824935239743 0 15.92729961436576 0 0.05005944771996403 0 229.1598564542341 0 1
 109.0499999999999 6.999857572269625 0 34.72355752863686 0 0.05005166542171587 0 147.1831006217789 0 1
 112.3499999999999 6.999785815107481 0 1.197553644899917 0 0.05006232800180267 0 225.9183639366744 0 1
 116.6499999999999 7.000083095928379 0 15.4934650052527 0 0.05006699284745378 0 152.5388827629752 0 1
 119.2499999999999 6.99993215359624 0 22.37393394372814 0 0.0501397263844191 0 175.7157119181831 0 1
 123.1499999999999 7.000099273194058 0 -7.513414467954963 0 0.05005426693869191 0 106.1315471568126 0 1
 128.5099999999999 7.000122657096226 0 -20.72317093638014 0 0.050061940630833 0 175.5164949444118 0 1
 133.8699999999999 6.999843036950492 0 -39.1627624183559 0 0.05005943370944962 0 84.48994421595184 0 1
 139.23 6.99980204466308 0 -16.18588030710428 0 0.05011850509381235 0 179.6370491148653 0 1
 144.59 7.000089960296035 0 -28.33619808990388 0 0.05009883781260688 0 105.8647869124807 0 1
 149.95 7.000121956948139 0 -27.44360774917008 0 0.05010925763920698 0 202.1099680291275 0 1
 155.31 6.999884112371468 0 13.07725332978754 0 0.0501059565449898 0 143.9708644099983 0 1
 160.67 6.999805218534953 0 -1.703142508739498 0 0.05008414147711364 0 181.2633886314779 0 1
 166.03 7.000115446738106 0 -40.81352452976041 0 0.05008725938310103 0 131.4772844014652 0 1
 168.6900000000001 7.000305626441801 0 -108.2489730835744 0 0.05029314700413722 0 223.1986456564739 0 1
 170.0500000000001 7.000155890432959 0 -74.08224126145436 0 0.05025239632237792 0 177.2520964535688 0 1
 171.4100000000001 6.999859843805523 0 -110.5545479755047 0 0.05003363102167946 0 196.7811643362829 0 1
 172.7700000000001 6.999996822193003 0 -116.866938068516 0 0.05003432852017543 0 185.0837363823489 0 1
 178.1300000000001 83.10886760964986 0 -422.9036786535994 0 0.05016458850973536 0 941.9246791402379 0 1
 183.4900000000001 162.2277951158165 0 -264.5141696256593 0 0.05030833329893689 0 1204.111674455686 0 1
 188.8500000000001 162.3904795151662 0 -630.1244886935591 0 0.05036983748179388 0 4809.524250612961 0 1
 194.2100000000002 161.8380871884357 0 -158.9649836429629 0 0.05023008542471594 0 1289.09339833176 0 1
 199.5700000000002 82.50641010469752 0 -102.0872094142658 0 0.05010956235185747 0 733.9990731818988 0 1
 204.9300000000002 7.00259836970841 0 -23.98071285279214 0 0.05006102571671134 0 95.1152439558513 0 1
 206.2900000000002 7.002632776261448 0 -26.51860301217063 0 0.05056107719293589 0 129.0444573400646 0 1
 207.6500000000002 7.002659303385234 0 -38.01073062617032 0 0.05046316163703737 0 185.2625540307186 0 1
 209.0100000000002 7.002639472552863 0 -31.22241484691818 0 0.05024991348906782 0 139.6547166576774 0 1
 210.3700000000002 7.002720251631751 0 -15.8057920970538 0 0.05042437174201735 0 108.9879394328309 0 1
 215.7300000000002 7.002649544215502 0 -6.922159336444481 0 0.05022215220651355 0 173.4884475852132 0 1
 221.0900000000003 7.002664473693697 0 9.182121085437091 0 0.05020309903479955 0 89.7848463469504 0 1
 226.4500000000003 7.002700262764122 0 20.57595498030607 0 0.05035023254405323 0 220.8027587432923 0 1
 231.8100000000003 7.002697817012659 0 4.065017004707538 0 0.05033272107320013 0 92.55220998802461 0 1
 237.1700000000003 7.002659865961554 0 30.96480716160924 0 0.05037924891398687 0 230.601636369816 0 1
 242.5300000000003 7.002692653679044 0 5.312284897083772 0 0.05028959895748811 0 129.6599111134661 0 1
 247.8900000000003 7.002722421426796 0 5.781213531312781 0 0.05036630688325951 0 212.9995179942304 0 1
 253.2500000000003 7.002699077012795 0 -4.185714917897675 0 0.05038619563956358 0 89.51773565357882 0 1
 255.1500000000004 7.002663355897932 0 -7.259791517872994 0 0.0506918721915386 0 122.4711109923112 0 1
 257.4500000000004 7.002672568434225 0 -9.87350662407284 0 0.05060630652824763 0 137.3293436134075 0 1
 260.2500000000004 7.002699269499415 0 -7.285765125396562 0 0.05047156056510296 0 120.8378972550925 0 1
 263.0500000000004 7.00272153897768 0 -26.76717597564825 0 0.05031778683328256 0 153.7355898366651 0 1
 265.8500000000004 7.00259853587259 0 -50.19340403521215 0 0.050434931253467 0 176.924139870898 0 1
 265.8500000000004 7.002679258305339 0 -54.23108347905335 0 0.05054982948198998 0 174.317562064831 0 1


