# Created by Octave 4.0.0, Tue Jun 04 13:36:27 2019 CEST <chetan@chetan-TTL-TEKNOPRO>
# name: E
# type: matrix
# rows: 44
# columns: 10
 8607.644432733907 8.062135780317348 0 28.876392240156 0 0.123761239585915 0 99.80003166939646 0 1
 8608.384700449806 8.060696510379406 0 11.81459887711149 0 0.12300291349018 0 80.56465684368858 0 1
 8608.559700449805 8.058256193355891 0 8.008410440824751 0 0.1222611739672697 0 75.41817435458339 0 1
 8609.299968165704 8.055199707814189 0 -10.52379655016652 0 0.1212084784744987 0 54.83901465990544 0 1
 8609.474968165703 8.047942991554772 0 -15.55504228907619 0 0.1231737200593839 0 54.36474696311559 0 1
 8612.050235881605 8.058685973845403 0 -100.5683752829536 0 0.1216151678221767 0 88.29933508936743 0 1
 8614.060235881607 8.119598530482445 0 -143.7382273233884 0 0.1219979173666276 0 200.1245205379003 0 1
 8616.070235881609 8.11429844869393 0 -337.9780424974961 0 0.1058422513497194 0 438.611501474042 0 1
 8618.080235881611 8.560842234321642 0 -151.3702191723197 0 0.1084601162062234 0 175.884803578883 0 1
 8620.090235881613 8.516200886559023 0 -55.62826074187219 0 0.1207910996205042 0 188.2881228162674 0 1
 8622.100235881615 8.474498393037248 0 104.6902863217536 0 0.09900844950897313 0 240.4032749793631 0 1
 8624.110235881617 8.451746271450666 0 393.8397234273552 0 0.308946453572329 0 454.6647224252409 0 1
 8626.120235881619 10.95547834320365 0 290.1423242996265 0 0.2712594925264106 0 366.4508567830571 0 1
 8628.130235881621 10.09815246598738 0 457.3911279642923 0 0.370586264748842 0 522.6001303833824 0 1
 8630.140235881623 13.44395893075455 0 190.1518528223821 0 0.3819478818815456 0 335.6460308082521 0 1
 8632.150235881625 12.92251370731227 0 120.8341841323533 0 0.299350555539298 0 291.9247225340347 0 1
 8634.160235881627 12.69312521026913 0 -81.05651215224113 0 0.3179717547936928 0 124.3872367357229 0 1
 8636.920235881627 12.69938619997959 0 -475.3753780942785 0 0.5062433825843312 0 554.6365621861731 0 1
 8645.420235881627 16.17886210367504 0 -682.1402099369951 0 0.4887976794049773 0 812.4760373481024 0 1
 8649.620235881626 11.91321042221225 0 -1336.523538936688 0 0.4363758988940402 0 1569.373010512982 0 1
 8650.420235881626 20.28533447382979 0 -1381.563409590155 0 0.4159678950659938 0 1629.839074855237 0 1
 8682.531686249309 25.70988595835299 0 -234.9867412275261 0 0.4559799468241903 0 786.8354879598882 0 1
 8687.831686249308 25.6934600482667 0 -347.17705526179 0 0.4701740561417418 0 919.5698149216134 0 1
 8692.531686249307 25.83810583538581 0 -548.1953034471265 0 0.6884005472216522 0 1379.501906697978 0 1
 8695.831686249307 26.13125439725595 0 -724.3829189710436 0 0.7300100135402073 0 1776.302441007704 0 1
 8727.032092195601 24.33224756330882 0 -119.2060260503632 0 0.6297228792229496 0 732.1948092567906 0 1
 8730.032092195601 25.44203737971383 0 -121.1177918184334 0 0.7574482972858114 0 602.244614923648 0 1
 8733.7320921956 24.94181089683363 0 -103.8051733979265 0 0.6864003969729611 0 633.9507956720751 0 1
 8737.932092195599 24.8944445104537 0 -80.1189910563013 0 0.6844411393197575 0 412.3369984384765 0 1
 8740.3320921956 25.06209485265843 0 -70.4713431743013 0 0.7059778421373295 0 428.6578443393007 0 1
 8750.532092195601 24.52730122463679 0 30.25020097952614 0 0.6773525728263394 0 189.3508261675768 0 1
 8760.732092195602 24.34296464806503 0 173.9937935161052 0 0.7814916179243953 0 494.9178660495652 0 1
 8770.932092195602 25.37681351368517 0 159.5574048852733 0 0.6930087669413049 0 527.4273609830747 0 1
 8781.132092195603 24.97087371326607 0 243.2841559973043 0 0.9104055400725184 0 936.3386207287841 0 1
 8791.332092195604 25.66747146788059 0 166.1681800401595 0 0.8298226225100632 0 787.9442044823766 0 1
 8801.532092195604 25.57850018138896 0 206.1754509858845 0 1.003758057405826 0 988.2898908579762 0 1
 8811.732092195605 25.25733606614834 0 100.5531444146162 0 0.9396750321525644 0 577.2655850028791 0 1
 8822.632092195605 25.47553769305597 0 49.5285224874543 0 1.118295843791429 0 520.0197621054681 0 1
 8823.932092195604 24.67589134232536 0 33.89510487263909 0 0.9414038850066324 0 436.8667142729955 0 1
 8828.232092195603 24.57118200204663 0 -26.50905161017253 0 0.8971735779845206 0 299.779691006109 0 1
 8834.332092195602 24.70185708841046 0 -98.56546077293953 0 1.948479429565314 0 234.4421853469887 0 1
 8837.407092195601 25.71904881562229 0 -69.64001115525944 0 1.947352258502937 0 221.9982075390405 0 1
 8837.407093195601 25.53632220531362 0 -69.66781384989743 0 2.136600065982493 0 253.2686708560801 0 1
 8839.407093195601 25.53632220531365 0 -89.59116396713102 0 2.136600065982496 0 334.4715328283016 0 1


