 0 0
 4.89236790606654e-06 389.727008480976
 9.78473581213307e-06 758.540406588367
 1.46771037181996e-05 1114.38558991634
 1.95694716242661e-05 1460.08263347687
 2.44618395303327e-05 1797.25406992093
 2.93542074363992e-05 2126.98997965896
 3.42465753424658e-05 2450.08730149459
 3.91389432485323e-05 2767.16100624835
 4.40313111545988e-05 3078.70389532897
 4.89236790606654e-05 3385.12205335223
 5.38160469667319e-05 3686.75739071311
 5.87084148727984e-05 3983.90275755228
 6.3600782778865e-05 4276.81250800445
 6.84931506849315e-05 4565.71013690346
 7.3385518590998e-05 4850.79395562936
 7.82778864970646e-05 5132.24141012166
 8.31702544031311e-05 5410.21243184578
 8.80626223091977e-05 5684.85208327276
 9.29549902152642e-05 5956.29267786311
 9.78473581213307e-05 6224.65550143312
 0.000102739726027397 6490.05222625342
 0.000107632093933464 6752.58608488874
 0.00011252446183953 7012.35285375964
 0.000117416829745597 7269.44168426544
 0.000122309197651663 7523.9358105052
 0.00012720156555773 7775.91315615146
 0.000132093933463796 8025.44685819382
 0.000136986301369863 8272.60572161027
 0.00014187866927593 8517.45461622666
 0.000146771037181996 8760.05482486154
 0.000151663405088063 9000.46435016457
 0.000156555772994129 9238.73818622629
 0.000161448140900196 9474.92855998004
 0.000166340508806262 9709.08514656971
 0.000171232876712329 9941.25526217458
 0.000176125244618395 10171.4840372271
 0.000181017612524462 10399.8145725062
 0.000185909980430528 10626.2880802157
 0.000190802348336595 10850.9440118486
 0.000195694716242661 11073.8201743805
 0.000200587084148728 11294.9528361231
 0.000205479452054795 11514.3768233857
 0.000210371819960861 11732.1256089431
 0.000215264187866928 11948.2313931762
 0.000220156555772994 12162.725178647
 0.000225048923679061 12375.63683877
 0.000229941291585127 12586.9951811659
 0.000234833659491194 12796.8280062144
 0.00023972602739726 13005.1621612588
 0.000244618395303327 13212.0235908702
 0.000249510763209393 13417.4373835276
 0.00025440313111546 13621.4278150361
 0.000259295499021526 13824.0183889681
 0.000264187866927593 14025.2318743833
 0.00026908023483366 14225.0903410579
 0.000273972602739726 14423.6151924294
 0.000278864970645793 14620.8271964419
 0.000283757338551859 14816.7465144609
 0.000288649706457926 15011.392728409
 0.000293542074363992 15204.78486626
 0.000298434442270059 15396.9414260153
 0.000303326810176125 15587.8803982782
 0.000308219178082192 15777.6192875262
 0.000313111545988258 15966.1751321788
 0.000318003913894325 16153.5645235434
 0.000322896281800391 16339.8036237212
 0.000327788649706458 16524.9081825421
 0.000332681017612524 16708.8935535967
 0.000337573385518591 16891.7747094254
 0.000342465753424658 17073.5662559198
 0.000347358121330724 17254.2824459885
 0.000352250489236791 17433.9371925339
 0.000357142857142857 17612.5440807849
 0.000362035225048924 17790.1163800235
 0.00036692759295499 17966.6670547458
 0.000371819960861057 18142.2087752885
 0.000376712328767123 18316.7539279559
 0.00038160469667319 18490.314624675
 0.000386497064579256 18662.9027122075
 0.000391389432485323 18834.5297809437
 0.000396281800391389 19005.2071733023
 0.000401174168297456 19174.9459917589
 0.000406066536203523 19343.7571065226
 0.000410958904109589 19511.6511628818
 0.000415851272015656 19678.6385882352
 0.000420743639921722 19844.729598827
 0.000425636007827789 20009.9342062005
 0.000430528375733855 20174.2622233852
 0.000435420743639922 20337.723270832
 0.000440313111545988 20500.3267821085
 0.000445205479452055 20662.0820093669
 0.000450097847358121 20822.9980285965
 0.000454990215264188 20983.0837446706
 0.000459882583170254 21142.3478961983
 0.000464774951076321 21300.799060191
 0.000469667318982388 21458.4456565518
 0.000474559686888454 21615.2959523977
 0.000479452054794521 21771.3580662197
 0.000484344422700587 21926.6399718924
 0.000489236790606654 22081.1495025355
 0.00049412915851272 22234.8943542384
 0.000499021526418787 22387.8820896501
 0.000503913894324853 22540.1201414441
 0.00050880626223092 22691.6158156605
 0.000513698630136986 22842.3762949335
 0.000518590998043053 22992.4086416077
 0.000523483365949119 23141.7198007479
 0.000528375733855186 23290.3166030485
 0.000533268101761252 23438.2057676447
 0.000538160469667319 23585.3939048317
 0.000543052837573386 23731.8875186935
 0.000547945205479452 23877.6930096473
 0.000552837573385519 24022.8166769054
 0.000557729941291585 24167.2647208584
 0.000562622309197652 24311.0432453829
 0.000567514677103718 24454.1582600771
 0.000572407045009785 24596.6156824262
 0.000577299412915851 24738.4213399012
 0.000582191780821918 24879.5809719935
 0.000587084148727984 25020.1002321875
 0.000591976516634051 25159.9846898737
 0.000596868884540117 25299.239832205
 0.000601761252446184 25437.8710658974
 0.000606653620352251 25575.8837189781
 0.000611545988258317 25713.2830424823
 0.000616438356164384 25850.0742121014
 0.00062133072407045 25986.2623297829
 0.000626223091976517 26121.8524252858
 0.000631115459882583 26256.8494576909
 0.00063600782778865 26391.2583168691
 0.000640900195694716 26525.0838249095
 0.000645792563600783 26658.3307375065
 0.000650684931506849 26791.0037453099
 0.000655577299412916 26923.1074752381
 0.000660469667318982 27054.646491755
 0.000665362035225049 27185.6252981135
 0.000670254403131116 27316.0483375654
 0.000675146771037182 27445.9199945388
 0.000680039138943249 27575.2445957855
 0.000684931506849315 27704.0264114976
 0.000689823874755382 27832.2696563951
 0.000694716242661448 27959.9784907867
 0.000699608610567515 28087.1570216013
 0.000704500978473581 28213.8093033956
 0.000709393346379648 28339.9393393342
 0.000714285714285714 28465.5510821471
 0.000719178082191781 28590.6484350612
 0.000724070450097847 28715.2352527107
 0.000728962818003914 28839.3153420238
 0.00073385518590998 28962.8924630886
 0.000738747553816047 29085.970329997
 0.000743639921722113 29208.5526116695
 0.00074853228962818 29330.6429326592
 0.000753424657534247 29452.2448739367
 0.000758317025440313 29573.3619736577
 0.00076320939334638 29693.9977279104
 0.000768101761252446 29814.1555914475
 0.000772994129158513 29933.8389784001
 0.000777886497064579 30053.0512629751
 0.000782778864970646 30171.7957801371
 0.000787671232876712 30290.0758262742
 0.000792563600782779 30407.8946598495
 0.000797455968688845 30525.2555020367
 0.000802348336594912 30642.1615373428
 0.000807240704500978 30758.615914216
 0.000812133072407045 30874.6217456402
 0.000817025440313112 30990.1821097172
 0.000821917808219178 31105.3000502353
 0.000826810176125245 31219.9785772256
 0.000831702544031311 31334.2206675071
 0.000836594911937378 31448.0292652188
 0.000841487279843444 31561.4072823416
 0.000846379647749511 31674.3575992083
 0.000851272015655577 31786.8830650031
 0.000856164383561644 31898.9864982508
 0.00086105675146771 32010.6706872953
 0.000865949119373777 32121.9383907685
 0.000870841487279843 32232.7923380495
 0.00087573385518591 32343.2352297139
 0.000880626223091977 32453.2697379746
 0.000885518590998043 32562.8985071131
 0.00089041095890411 32672.1241539022
 0.000895303326810176 32780.9492680201
 0.000900195694716243 32889.3764124567
 0.000905088062622309 32997.408123911
 0.000909980430528376 33105.0469131811
 0.000914872798434442 33212.2952655465
 0.000919765166340509 33319.1556411428
 0.000924657534246575 33425.6304753292
 0.000929549902152642 33531.7221790486
 0.000934442270058708 33637.4331391809
 0.000939334637964775 33742.7657188894
 0.000944227005870842 33847.7222579612
 0.000949119373776908 33952.3050731399
 0.000954011741682975 34056.5164584529
 0.000958904109589041 34160.3586855327
 0.000963796477495108 34263.834003931
 0.000968688845401174 34366.9446414287
 0.000973581213307241 34469.692804338
 0.000978473581213307 34572.0806778011
 0.000983365949119374 34674.1104260817
 0.00098825831702544 34775.7841928521
 0.000993150684931507 34877.1041014747
 0.000998043052837573 34978.0722552783
 0.00100293542074364 35078.6907378301
 0.00100782778864971 35178.9616132017
 0.00101272015655577 35278.8869262312
 0.00101761252446184 35378.4687027804
 0.00102250489236791 35477.7089499874
 0.00102739726027397 35576.6096565145
 0.00103228962818004 35675.1727927924
 0.00103718199608611 35773.4003112593
 0.00104207436399217 35871.2941465965
 0.00104696673189824 35968.8562159596
 0.00105185909980431 36066.0884192058
 0.00105675146771037 36162.9926391172
 0.00106164383561644 36259.5707416206
 0.0010665362035225 36355.8245760027
 0.00107142857142857 36451.7559751232
 0.00107632093933464 36547.3667556223
 0.0010812133072407 36642.6587181267
 0.00108610567514677 36737.6336474508
 0.00109099804305284 36832.2933127948
 0.0010958904109589 36926.63946794
 0.00110078277886497 37020.6738514406
 0.00110567514677104 37114.398186812
 0.0011105675146771 37207.8141827166
 0.00111545988258317 37300.923533146
 0.00112035225048924 37393.7279176009
 0.0011252446183953 37486.2290012674
 0.00113013698630137 37578.4284351908
 0.00113502935420744 37670.3278564471
 0.0011399217221135 37761.9288883103
 0.00114481409001957 37853.2331404188
 0.00114970645792564 37944.2422089381
 0.0011545988258317 38034.957676721
 0.00115949119373777 38125.3811134657
 0.00116438356164384 38215.514075871
 0.0011692759295499 38305.3581077895
 0.00117416829745597 38394.9147403778
 0.00117906066536204 38484.1854922452
 0.0011839530332681 38573.1718695994
 0.00118884540117417 38661.8753663902
 0.00119373776908023 38750.2974644512
 0.0011986301369863 38838.4396336391
 0.00120352250489237 38926.3033319709
 0.00120841487279843 39013.8900057593
 0.0012133072407045 39101.2010897454
 0.00121819960861057 39188.2380072304
 0.00122309197651663 39275.0021702044
 0.0012279843444227 39361.4949794739
 0.00123287671232877 39447.717824787
 0.00123776908023483 39533.6720849571
 0.0012426614481409 39619.3591279843
 0.00124755381604697 39704.7803111759
 0.00125244618395303 39789.9369812639
 0.0012573385518591 39874.830474522
 0.00126223091976517 39959.4621168802
 0.00126712328767123 40043.8332240375
 0.0012720156555773 40127.945101574
 0.00127690802348337 40211.7990450605
 0.00128180039138943 40295.3963401668
 0.0012866927592955 40378.7382627684
 0.00129158512720157 40461.8260790519
 0.00129647749510763 40544.6610456187
 0.0013013698630137 40627.2444095873
 0.00130626223091977 40709.577408694
 0.00131115459882583 40791.6612713928
 0.0013160469667319 40873.4972169531
 0.00132093933463796 40955.0864555562
 0.00132583170254403 41036.4301883914
 0.0013307240704501 41117.5296077493
 0.00133561643835616 41198.385897115
 0.00134050880626223 41279.0002312594
 0.0013454011741683 41359.3737763295
 0.00135029354207436 41439.5076899375
 0.00135518590998043 41519.4031212483
 0.0013600782778865 41599.0612110665
 0.00136497064579256 41678.4830919216
 0.00136986301369863 41757.6698881524
 0.0013747553816047 41836.6227159903
 0.00137964774951076 41915.342683641
 0.00138454011741683 41993.8308913658
 0.0013894324853229 42072.0884315615
 0.00139432485322896 42150.1163888389
 0.00139921722113503 42227.9158401013
 0.0014041095890411 42305.4878546205
 0.00140900195694716 42382.833494113
 0.00141389432485323 42459.953812815
 0.0014187866927593 42536.8498575559
 0.00142367906066536 42613.522667831
 0.00142857142857143 42689.9732758742
 0.0014334637964775 42766.202706728
 0.00143835616438356 42842.2119783146
 0.00144324853228963 42918.0021015042
 0.00144814090019569 42993.5740801841
 0.00145303326810176 43068.9289113255
 0.00145792563600783 43144.0675850507
 0.00146281800391389 43218.9910846984
 0.00146771037181996 43293.7003868888
 0.00147260273972603 43368.1964615878
 0.00147749510763209 43442.4802721704
 0.00148238747553816 43516.5527754826
 0.00148727984344423 43590.4149219043
 0.00149217221135029 43664.0676554091
 0.00149706457925636 43737.5119136253
 0.00150195694716243 43810.7486278952
 0.00150684931506849 43883.7787233336
 0.00151174168297456 43956.6031188865
 0.00151663405088063 44029.2227273876
 0.00152152641878669 44101.6384556156
 0.00152641878669276 44173.85120435
 0.00153131115459883 44245.8618684259
 0.00153620352250489 44317.6713367896
 0.00154109589041096 44389.2804925515
 0.00154598825831703 44460.6902130402
 0.00155088062622309 44531.9013698546
 0.00155577299412916 44602.9148289166
 0.00156066536203523 44673.7314505217
 0.00156555772994129 44744.3520893907
 0.00157045009784736 44814.7775947192
 0.00157534246575342 44885.0088102277
 0.00158023483365949 44955.0465742104
 0.00158512720156556 45024.8917195838
 0.00159001956947162 45094.5450739345
 0.00159491193737769 45164.0074595667
 0.00159980430528376 45233.279693549
 0.00160469667318982 45302.3625877605
 0.00160958904109589 45371.2569489365
 0.00161448140900196 45439.9635787141
 0.00161937377690802 45508.4832736765
 0.00162426614481409 45576.8168253972
 0.00162915851272016 45644.9650204838
 0.00163405088062622 45712.9286406213
 0.00163894324853229 45780.7084626144
 0.00164383561643836 45848.3052584301
 0.00164872798434442 45915.7197952391
 0.00165362035225049 45982.9528354574
 0.00165851272015656 46050.0051367868
 0.00166340508806262 46116.8774522553
 0.00166829745596869 46183.5705302572
 0.00167318982387476 46250.0851145921
 0.00167808219178082 46316.4219445046
 0.00168297455968689 46382.5817547222
 0.00168786692759296 46448.5652754936
 0.00169275929549902 46514.373232627
 0.00169765166340509 46580.0063475266
 0.00170254403131115 46645.4653372301
 0.00170743639921722 46710.7509144447
 0.00171232876712329 46775.8637875838
 0.00171722113502935 46840.8046608025
 0.00172211350293542 46905.5742340325
 0.00172700587084149 46970.1732030175
 0.00173189823874755 47034.602259348
 0.00173679060665362 47098.8620904949
 0.00174168297455969 47162.9533798436
 0.00174657534246575 47226.8768067277
 0.00175146771037182 47290.6330464616
 0.00175636007827789 47354.2227703739
 0.00176125244618395 47417.6466458394
 0.00176614481409002 47480.9053363111
 0.00177103718199609 47543.9995013524
 0.00177592954990215 47606.929796668
 0.00178082191780822 47669.6968741352
 0.00178571428571429 47732.3013818349
 0.00179060665362035 47794.7439640815
 0.00179549902152642 47857.0252614533
 0.00180039138943249 47919.1459108224
 0.00180528375733855 47981.1065453841
 0.00181017612524462 48042.907794686
 0.00181506849315068 48104.5502846568
 0.00181996086105675 48166.0346376353
 0.00182485322896282 48227.3614723983
 0.00182974559686888 48288.5314041887
 0.00183463796477495 48349.5450447433
 0.00183953033268102 48410.4030023202
 0.00184442270058708 48471.105881726
 0.00184931506849315 48531.6542843425
 0.00185420743639922 48592.0488081536
 0.00185909980430528 48652.2900477714
 0.00186399217221135 48712.3785944624
 0.00186888454011742 48772.3150361733
 0.00187377690802348 48832.0999575565
 0.00187866927592955 48891.7339399956
 0.00188356164383562 48951.2175616302
 0.00188845401174168 49010.5513973807
 0.00189334637964775 49069.7360189732
 0.00189823874755382 49128.7719949634
 0.00190313111545988 49187.659890761
 0.00190802348336595 49246.4002686533
 0.00191291585127202 49304.9936878289
 0.00191780821917808 49363.4407044012
 0.00192270058708415 49421.7418714313
 0.00192759295499022 49479.897738951
 0.00193248532289628 49537.9088539857
 0.00193737769080235 49595.7757605766
 0.00194227005870841 49653.4989998031
 0.00194716242661448 49711.0791098048
 0.00195205479452055 49768.5166258033
 0.00195694716242661 49825.812080124
 0.00196183953033268 49882.9660022172
 0.00196673189823875 49939.9789186798
 0.00197162426614481 49996.8513532757
 0.00197651663405088 50053.5838269569
 0.00198140900195695 50110.1768578844
 0.00198630136986301 50166.6309614481
 0.00199119373776908 50222.9466502873
 0.00199608610567515 50279.1244343107
 0.00200097847358121 50335.1648207162
 0.00200587084148728 50391.0683140106
 0.00201076320939335 50446.8354160292
 0.00201565557729941 50502.4666259545
 0.00202054794520548 50557.9624403363
 0.00202544031311155 50613.3233531096
 0.00203033268101761 50668.5498556142
 0.00203522504892368 50723.6424366127
 0.00204011741682975 50778.6015823093
 0.00204500978473581 50833.4277763676
 0.00204990215264188 50888.1214999293
 0.00205479452054795 50942.6832316313
 0.00205968688845401 50997.1134476243
 0.00206457925636008 51051.4126215897
 0.00206947162426614 51105.5812247575
 0.00207436399217221 51159.619725923
 0.00207925636007828 51213.5285914648
 0.00208414872798434 51267.3082853605
 0.00208904109589041 51320.9592692048
 0.00209393346379648 51374.4820022252
 0.00209882583170254 51427.876941299
 0.00210371819960861 51481.1445409692
 0.00210861056751468 51534.2852534614
 0.00211350293542074 51587.2995286991
 0.00211839530332681 51640.18781432
 0.00212328767123288 51692.9505556918
 0.00212818003913894 51745.5881959276
 0.00213307240704501 51798.1011759017
 0.00213796477495108 51850.4899342645
 0.00214285714285714 51902.7549074583
 0.00214774951076321 51954.8965297319
 0.00215264187866928 52006.9152331557
 0.00215753424657534 52058.8114476367
 0.00216242661448141 52110.5856009329
 0.00216731898238748 52162.2381186681
 0.00217221135029354 52213.769424346
 0.00217710371819961 52265.179939365
 0.00218199608610567 52316.470083032
 0.00218688845401174 52367.6402725766
 0.00219178082191781 52418.6909231649
 0.00219667318982388 52469.6224479136
 0.00220156555772994 52520.4352579034
 0.00220645792563601 52571.1297621929
 0.00221135029354207 52621.7063678317
 0.00221624266144814 52672.1654798739
 0.00222113502935421 52722.5075013915
 0.00222602739726027 52772.7328334873
 0.00223091976516634 52822.841875308
 0.00223581213307241 52872.8350240572
 0.00224070450097847 52922.7126750078
 0.00224559686888454 52972.4752215153
 0.00225048923679061 53022.1230550299
 0.00225538160469667 53071.656565109
 0.00226027397260274 53121.0761394299
 0.00226516634050881 53170.3821638016
 0.00227005870841487 53219.5750221773
 0.00227495107632094 53268.6550966663
 0.00227984344422701 53317.6227675462
 0.00228473581213307 53366.4784132743
 0.00228962818003914 53415.2224104997
 0.00229452054794521 53463.8551340748
 0.00229941291585127 53512.3769570672
 0.00230430528375734 53560.7882507706
 0.00230919765166341 53609.0893847166
 0.00231409001956947 53657.2807266858
 0.00231898238747554 53705.3626427192
 0.0023238747553816 53753.3354971289
 0.00232876712328767 53801.1996525094
 0.00233365949119374 53848.9554697487
 0.0023385518590998 53896.6033080385
 0.00234344422700587 53944.1435248856
 0.00234833659491194 53991.576476122
 0.002353228962818 54038.902515916
 0.00235812133072407 54086.1219967822
 0.00236301369863014 54133.2352695922
 0.0023679060665362 54180.2426835848
 0.00237279843444227 54227.1445863761
 0.00237769080234834 54273.9413239699
 0.0023825831702544 54320.6332407675
 0.00238747553816047 54367.2206795781
 0.00239236790606654 54413.7039816282
 0.0023972602739726 54460.0834865715
 0.00240215264187867 54506.3595324991
 0.00240704500978474 54552.5324559487
 0.0024119373776908 54598.6025919144
 0.00241682974559687 54644.5702738561
 0.00242172211350294 54690.4358337089
 0.002426614481409 54736.1996018928
 0.00243150684931507 54781.8619073217
 0.00243639921722113 54827.4230774125
 0.0024412915851272 54872.8834380947
 0.00244618395303327 54918.2433138188
 0.00245107632093933 54963.5030275662
 0.0024559686888454 55008.6629008573
 0.00246086105675147 55053.7232537607
 0.00246575342465753 55098.6844049022
 0.0024706457925636 55143.5466714732
 0.00247553816046967 55188.3103692394
 0.00248043052837573 55232.9758125497
 0.0024853228962818 55277.5433143442
 0.00249021526418787 55322.0131861632
 0.00249510763209393 55366.3857381553
 0.0025 55410.6612790858
