 0 0
 4.89236790606654e-06 4.03268623090791
 9.78473581213307e-06 7.92214090753739
 1.46771037181996e-05 11.7212709461905
 1.95694716242661e-05 15.4489110270024
 2.44618395303327e-05 19.1159245608977
 2.93542074363992e-05 22.7296271194739
 3.42465753424658e-05 26.2953790884708
 3.91389432485323e-05 29.8173259997671
 4.40313111545988e-05 33.298796981925
 4.89236790606654e-05 36.7425411273562
 5.38160469667319e-05 40.1508778740899
 5.87084148727984e-05 43.525797889587
 6.3600782778865e-05 46.8690336263847
 6.84931506849315e-05 50.1821103547761
 7.3385518590998e-05 53.4663841136648
 7.82778864970646e-05 56.7230705989103
 8.31702544031311e-05 59.9532675947111
 8.80626223091977e-05 63.1579726925291
 9.29549902152642e-05 66.3380974983954
 9.78473581213307e-05 69.4944791753812
 0.000102739726027397 72.627889931067
 0.000107632093933464 75.7390448975281
 0.00011252446183953 78.8286087377023
 0.000117416829745597 81.89720123101
 0.000122309197651663 84.9454020323186
 0.00012720156555773 87.9737547550725
 0.000132093933463796 90.9827704970868
 0.000136986301369863 93.9729309030732
 0.00014187866927593 96.9446908392611
 0.000146771037181996 99.8984807410224
 0.000151663405088063 102.834708683112
 0.000156555772994129 105.753762213246
 0.000161448140900196 108.656009982667
 0.000166340508806262 111.541803201662
 0.000171232876712329 114.411476943464
 0.000176125244618395 117.265351316218
 0.000181017612524462 120.103732519668
 0.000185909980430528 122.926913800738
 0.000190802348336595 125.735176320081
 0.000195694716242661 128.528789939978
 0.000200587084148728 131.308013942516
 0.000205479452054795 134.073097685766
 0.000210371819960861 136.824281204668
 0.000215264187866928 139.56179576246
 0.000220156555772994 142.285864357761
 0.000225048923679061 144.996702191772
 0.000229941291585127 147.69451709954
 0.000234833659491194 150.379509948745
 0.00023972602739726 153.051875009101
 0.000244618395303327 155.711800295068
 0.000249510763209393 158.359467884315
 0.00025440313111546 160.99505421409
 0.000259295499021526 163.618730357417
 0.000264187866927593 166.230662280852
 0.00026908023483366 168.831011085354
 0.000273972602739726 171.419933231651
 0.000278864970645793 173.997580751366
 0.000283757338551859 176.564101445041
 0.000288649706457926 179.119639068066
 0.000293542074363992 181.664333505465
 0.000298434442270059 184.198320936372
 0.000303326810176125 186.721733988949
 0.000308219178082192 189.234701886482
 0.000313111545988258 191.737350585246
 0.000318003913894325 194.229802904763
 0.000322896281800391 196.712178650954
 0.000327788649706458 199.184594732687
 0.000332681017612524 201.64716527217
 0.000337573385518591 204.100001709596
 0.000342465753424658 206.543212902409
 0.000347358121330724 208.976905219561
 0.000352250489236791 211.401182631061
 0.000357142857142857 213.816146793118
 0.000362035225048924 216.221897129154
 0.00036692759295499 218.618530906944
 0.000371819960861057 221.006143312108
 0.000376712328767123 223.384827518177
 0.00038160469667319 225.754674753438
 0.000386497064579256 228.115774364742
 0.000391389432485323 230.468213878448
 0.000396281800391389 232.81207905867
 0.000401174168297456 235.147453962978
 0.000406066536203523 237.474420995685
 0.000410958904109589 239.793060958861
 0.000415851272015656 242.103453101202
 0.000420743639921722 244.405675164848
 0.000425636007827789 246.69980343028
 0.000430528375733855 248.985912759386
 0.000435420743639922 251.264076636789
 0.000440313111545988 253.53436720953
 0.000445205479452055 255.796855325193
 0.000450097847358121 258.05161056853
 0.000454990215264188 260.298701296688
 0.000459882583170254 262.538194673089
 0.000464774951076321 264.770156700022
 0.000469667318982388 266.994652250037
 0.000474559686888454 269.211745096156
 0.000479452054794521 271.421497940995
 0.000484344422700587 273.623972444828
 0.000489236790606654 275.819229252642
 0.00049412915851272 278.007328020231
 0.000499021526418787 280.18832743938
 0.000503913894324853 282.362285262163
 0.00050880626223092 284.529258324411
 0.000513698630136986 286.689302568376
 0.000518590998043053 288.842473064627
 0.000523483365949119 290.988824033216
 0.000528375733855186 293.128408864138
 0.000533268101761252 295.261280137122
 0.000538160469667319 297.38748964077
 0.000543052837573386 299.507088391088
 0.000547945205479452 301.620126649418
 0.000552837573385519 303.726653939795
 0.000557729941291585 305.826719065774
 0.000562622309197652 307.920370126717
 0.000567514677103718 310.007654533587
 0.000572407045009785 312.088619024249
 0.000577299412915851 314.163309678317
 0.000582191780821918 316.231771931542
 0.000587084148727984 318.294050589782
 0.000591976516634051 320.350189842547
 0.000596868884540117 322.400233276152
 0.000601761252446184 324.444223886486
 0.000606653620352251 326.482204091414
 0.000611545988258317 328.514215742814
 0.000616438356164384 330.540300138285
 0.00062133072407045 332.560498032511
 0.000626223091976517 334.574849648318
 0.000631115459882583 336.583394687415
 0.00063600782778865 338.586172340845
 0.000640900195694716 340.583221299143
 0.000645792563600783 342.574579762227
 0.000650684931506849 344.560285449014
 0.000655577299412916 346.540375606782
 0.000660469667318982 348.514887020287
 0.000665362035225049 350.483856020627
 0.000670254403131116 352.447318493893
 0.000675146771037182 354.405309889579
 0.000680039138943249 356.357865228779
 0.000684931506849315 358.305019112179
 0.000689823874755382 360.246805727841
 0.000694716242661448 362.183258858792
 0.000699608610567515 364.11441189042
 0.000704500978473581 366.040297817689
 0.000709393346379648 367.960949252175
 0.000714285714285714 369.876398428926
 0.000719178082191781 371.786677213158
 0.000724070450097847 373.691817106787
 0.000728962818003914 375.591849254802
 0.00073385518590998 377.486804451494
 0.000738747553816047 379.37671314652
 0.000743639921722113 381.261605450841
 0.00074853228962818 383.141511142515
 0.000753424657534247 385.016459672345
 0.000758317025440313 386.886480169416
 0.00076320939334638 388.751601446483
 0.000768101761252446 390.611852005254
 0.000772994129158513 392.467260041541
 0.000777886497064579 394.317853450298
 0.000782778864970646 396.163659830549
 0.000787671232876712 398.004706490202
 0.000792563600782779 399.841020450758
 0.000797455968688845 401.672628451917
 0.000802348336594912 403.49955695608
 0.000807240704500978 405.321832152758
 0.000812133072407045 407.139479962879
 0.000817025440313112 408.952526043011
 0.000821917808219178 410.760995789483
 0.000826810176125245 412.564914342431
 0.000831702544031311 414.364306589751
 0.000836594911937378 416.159197170966
 0.000841487279843444 417.949610481022
 0.000846379647749511 419.735570674
 0.000851272015655577 421.517101666745
 0.000856164383561644 423.294227142432
 0.00086105675146771 425.066970554049
 0.000865949119373777 426.835355127821
 0.000870841487279843 428.599403866549
 0.00087573385518591 430.359139552896
 0.000880626223091977 432.1145847526
 0.000885518590998043 433.865761817627
 0.00089041095890411 435.612692889256
 0.000895303326810176 437.35539990111
 0.000900195694716243 439.093904582125
 0.000905088062622309 440.828228459459
 0.000909980430528376 442.558392861347
 0.000914872798434442 444.284418919904
 0.000919765166340509 446.006327573867
 0.000924657534246575 447.724139571291
 0.000929549902152642 449.437875472193
 0.000934442270058708 451.147555651142
 0.000939334637964775 452.853200299807
 0.000944227005870842 454.554829429451
 0.000949119373776908 456.252462873383
 0.000954011741682975 457.946120289365
 0.000958904109589041 459.63582116197
 0.000963796477495108 461.321584804902
 0.000968688845401174 463.003430363271
 0.000973581213307241 464.68137681583
 0.000978473581213307 466.355442977167
 0.000983365949119374 468.025647499859
 0.00098825831702544 469.692008876594
 0.000993150684931507 471.354545442244
 0.000998043052837573 473.013275375912
 0.00100293542074364 474.668216702934
 0.00100782778864971 476.319387296856
 0.00101272015655577 477.966804881366
 0.00101761252446184 479.610487032201
 0.00102250489236791 481.250451179017
 0.00102739726027397 482.886714607223
 0.00103228962818004 484.519294459796
 0.00103718199608611 486.148207739052
 0.00104207436399217 487.773471308395
 0.00104696673189824 489.395101894031
 0.00105185909980431 491.013116086659
 0.00105675146771037 492.627530343129
 0.00106164383561644 494.238360988076
 0.0010665362035225 495.845624215524
 0.00107142857142857 497.449336090467
 0.00107632093933464 499.049512550418
 0.0010812133072407 500.64616940694
 0.00108610567514677 502.239322347149
 0.00109099804305284 503.828986935191
 0.0010958904109589 505.415178613696
 0.00110078277886497 506.997912705211
 0.00110567514677104 508.577204413609
 0.0011105675146771 510.153068825472
 0.00111545988258317 511.72552091146
 0.00112035225048924 513.294575527648
 0.0011252446183953 514.860247416852
 0.00113013698630137 516.422551209927
 0.00113502935420744 517.981501427051
 0.0011399217221135 519.537112478982
 0.00114481409001957 521.089398668302
 0.00114970645792564 522.638374190637
 0.0011545988258317 524.184053135863
 0.00115949119373777 525.72644948929
 0.00116438356164384 527.265577132829
 0.0011692759295499 528.801449846142
 0.00117416829745597 530.334081307774
 0.00117906066536204 531.863485096268
 0.0011839530332681 533.389674691265
 0.00118884540117417 534.912663474584
 0.00119373776908023 536.43246473129
 0.0011986301369863 537.949091650745
 0.00120352250489237 539.46255732764
 0.00120841487279843 540.972874763018
 0.0012133072407045 542.480056865278
 0.00121819960861057 543.984116451166
 0.00122309197651663 545.485066246749
 0.0012279843444227 546.982918888382
 0.00123287671232877 548.477686923648
 0.00123776908023483 549.969382812301
 0.0012426614481409 551.458018927183
 0.00124755381604697 552.943607555132
 0.00125244618395303 554.426160897881
 0.0012573385518591 555.905691072936
 0.00126223091976517 557.382210114451
 0.00126712328767123 558.855729974083
 0.0012720156555773 560.326262521838
 0.00127690802348337 561.793819546911
 0.00128180039138943 563.258412758503
 0.0012866927592955 564.720053786633
 0.00129158512720157 566.178754182945
 0.00129647749510763 567.63452542149
 0.0013013698630137 569.087378899508
 0.00130626223091977 570.537325938198
 0.00131115459882583 571.984377783474
 0.0013160469667319 573.428545606712
 0.00132093933463796 574.869840505491
 0.00132583170254403 576.308273504317
 0.0013307240704501 577.743855555343
 0.00133561643835616 579.176597539078
 0.00134050880626223 580.606510265085
 0.0013454011741683 582.033604472674
 0.00135029354207436 583.457890831578
 0.00135518590998043 584.879379942629
 0.0013600782778865 586.298082338419
 0.00136497064579256 587.714008483958
 0.00136986301369863 589.127168777316
 0.0013747553816047 590.537573550264
 0.00137964774951076 591.9452330689
 0.00138454011741683 593.350157534278
 0.0013894324853229 594.75235708301
 0.00139432485322896 596.151841787883
 0.00139921722113503 597.548621658452
 0.0014041095890411 598.942706641631
 0.00140900195694716 600.334106622275
 0.00141389432485323 601.722831423758
 0.0014187866927593 603.10889080854
 0.00142367906066536 604.492294478732
 0.00142857142857143 605.873052076645
 0.0014334637964775 607.25117318534
 0.00143835616438356 608.626667329172
 0.00144324853228963 609.999543974319
 0.00144814090019569 611.369812529313
 0.00145303326810176 612.737482345561
 0.00145792563600783 614.102562717861
 0.00146281800391389 615.465062884904
 0.00146771037181996 616.824992029786
 0.00147260273972603 618.182359280499
 0.00147749510763209 619.53717371042
 0.00148238747553816 620.8894443388
 0.00148727984344423 622.23918013124
 0.00149217221135029 623.586390000165
 0.00149706457925636 624.931082805289
 0.00150195694716243 626.273267354083
 0.00150684931506849 627.612952402222
 0.00151174168297456 628.950146654046
 0.00151663405088063 630.284858762999
 0.00152152641878669 631.617097332073
 0.00152641878669276 632.94687091424
 0.00153131115459883 634.274188012888
 0.00153620352250489 635.599057082239
 0.00154109589041096 636.921486527777
 0.00154598825831703 638.241484706658
 0.00155088062622309 639.559059928124
 0.00155577299412916 640.874220453906
 0.00156066536203523 642.186974498632
 0.00156555772994129 643.497330230215
 0.00157045009784736 644.805295770253
 0.00157534246575342 646.110879194412
 0.00158023483365949 647.414088532813
 0.00158512720156556 648.714931770411
 0.00159001956947162 650.013416847367
 0.00159491193737769 651.309551659422
 0.00159980430528376 652.603344058264
 0.00160469667318982 653.894801851887
 0.00160958904109589 655.183932804956
 0.00161448140900196 656.470744639153
 0.00161937377690802 657.755245033537
 0.00162426614481409 659.037441624884
 0.00162915851272016 660.317342008036
 0.00163405088062622 661.594953736233
 0.00163894324853229 662.870284321457
 0.00164383561643836 664.143341234758
 0.00164872798434442 665.414131906586
 0.00165362035225049 666.682663727114
 0.00165851272015656 667.948944046558
 0.00166340508806262 669.212980175501
 0.00166829745596869 670.474779385201
 0.00167318982387476 671.734348907906
 0.00167808219178082 672.991695937161
 0.00168297455968689 674.246827628112
 0.00168786692759296 675.499751097809
 0.00169275929549902 676.750473425501
 0.00169765166340509 677.999001652937
 0.00170254403131115 679.245342784653
 0.00170743639921722 680.489503788261
 0.00171232876712329 681.731491594739
 0.00171722113502935 682.971313098711
 0.00172211350293542 684.208975158727
 0.00172700587084149 685.444484597541
 0.00173189823874755 686.677848202385
 0.00173679060665362 687.909072725241
 0.00174168297455969 689.13816488311
 0.00174657534246575 690.365131358277
 0.00175146771037182 691.589978798574
 0.00175636007827789 692.812713817641
 0.00176125244618395 694.033342995186
 0.00176614481409002 695.251872877236
 0.00177103718199609 696.468309976394
 0.00177592954990215 697.682660772089
 0.00178082191780822 698.894931710817
 0.00178571428571429 700.105129206395
 0.00179060665362035 701.313259640201
 0.00179549902152642 702.519329361411
 0.00180039138943249 703.72334468724
 0.00180528375733855 704.925311903178
 0.00181017612524462 706.125237263221
 0.00181506849315068 707.323126990105
 0.00181996086105675 708.518987275531
 0.00182485322896282 709.712824280395
 0.00182974559686888 710.904644135009
 0.00183463796477495 712.094452939327
 0.00183953033268102 713.282256763161
 0.00184442270058708 714.4680616464
 0.00184931506849315 715.651873599227
 0.00185420743639922 716.833698602333
 0.00185909980430528 718.013542607124
 0.00186399217221135 719.191411535936
 0.00186888454011742 720.367311282241
 0.00187377690802348 721.541247710847
 0.00187866927592955 722.713226658112
 0.00188356164383562 723.883253932135
 0.00188845401174168 725.051335312964
 0.00189334637964775 726.217476552787
 0.00189823874755382 727.381683376135
 0.00190313111545988 728.54396148007
 0.00190802348336595 729.704316534379
 0.00191291585127202 730.862754181766
 0.00191780821917808 732.01928003804
 0.00192270058708415 733.173899692301
 0.00192759295499022 734.326618707126
 0.00193248532289628 735.477442618752
 0.00193737769080235 736.626376937259
 0.00194227005870841 737.773427146749
 0.00194716242661448 738.918598705523
 0.00195205479452055 740.061897046262
 0.00195694716242661 741.203327576197
 0.00196183953033268 742.342895677288
 0.00196673189823875 743.480606706389
 0.00197162426614481 744.616465995427
 0.00197651663405088 745.750478851564
 0.00198140900195695 746.882650557367
 0.00198630136986301 748.012986370974
 0.00199119373776908 749.141491526259
 0.00199608610567515 750.268171232992
 0.00200097847358121 751.393030677003
 0.00200587084148728 752.516075020341
 0.00201076320939335 753.637309401434
 0.00201565557729941 754.756738935242
 0.00202054794520548 755.87436871342
 0.00202544031311155 756.990203804464
 0.00203033268101761 758.10424925387
 0.00203522504892368 759.216510084282
 0.00204011741682975 760.326991295645
 0.00204500978473581 761.435697865353
 0.00204990215264188 762.542634748395
 0.00205479452054795 763.647806877505
 0.00205968688845401 764.751219163304
 0.00206457925636008 765.852876494443
 0.00206947162426614 766.952783737749
 0.00207436399217221 768.050945738366
 0.00207925636007828 769.147367319891
 0.00208414872798434 770.242053284519
 0.00208904109589041 771.335008413174
 0.00209393346379648 772.426237465651
 0.00209882583170254 773.515745180751
 0.00210371819960861 774.603536276409
 0.00210861056751468 775.689615449835
 0.00211350293542074 776.773987377643
 0.00211839530332681 777.85665671598
 0.00212328767123288 778.937628100658
 0.00212818003913894 780.01690614728
 0.00213307240704501 781.094495451371
 0.00213796477495108 782.170400588503
 0.00214285714285714 783.244626114419
 0.00214774951076321 784.317176565159
 0.00215264187866928 785.388056457183
 0.00215753424657534 786.457270287491
 0.00216242661448141 787.524822533749
 0.00216731898238748 788.590717654406
 0.00217221135029354 789.654960088812
 0.00217710371819961 790.71755425734
 0.00218199608610567 791.7785045615
 0.00218688845401174 792.837815384057
 0.00219178082191781 793.895491089147
 0.00219667318982388 794.951536022388
 0.00220156555772994 796.005954510999
 0.00220645792563601 797.058750863908
 0.00221135029354207 798.109929371863
 0.00221624266144814 799.159494307549
 0.00222113502935421 800.20744992569
 0.00222602739726027 801.253800463164
 0.00223091976516634 802.298550139107
 0.00223581213307241 803.341703155022
 0.00224070450097847 804.383263694886
 0.00224559686888454 805.423235925255
 0.00225048923679061 806.461623995367
 0.00225538160469667 807.498432037248
 0.00226027397260274 808.533664165813
 0.00226516634050881 809.567324478969
 0.00227005870841487 810.59941705772
 0.00227495107632094 811.629945966258
 0.00227984344422701 812.658915252074
 0.00228473581213307 813.68632894605
 0.00228962818003914 814.712191062557
 0.00229452054794521 815.736505599556
 0.00229941291585127 816.759276538694
 0.00230430528375734 817.780507845396
 0.00230919765166341 818.800203468966
 0.00231409001956947 819.818367342674
 0.00231898238747554 820.835003383859
 0.0023238747553816 821.850115494013
 0.00232876712328767 822.863707558878
 0.00233365949119374 823.875783448537
 0.0023385518590998 824.886347017504
 0.00234344422700587 825.895402104814
 0.00234833659491194 826.902952534114
 0.002353228962818 827.909002113748
 0.00235812133072407 828.91355463685
 0.00236301369863014 829.916613881426
 0.0023679060665362 830.918183610447
 0.00237279843444227 831.918267571929
 0.00237769080234834 832.91686949902
 0.0023825831702544 833.913993110088
 0.00238747553816047 834.909642108802
 0.00239236790606654 835.903820184215
 0.0023972602739726 836.896531010848
 0.00240215264187867 837.887778248772
 0.00240704500978474 838.877565543691
 0.0024119373776908 839.86589652702
 0.00241682974559687 840.852774815969
 0.00242172211350294 841.838204013617
 0.002426614481409 842.822187708998
 0.00243150684931507 843.804729477176
 0.00243639921722113 844.785832879321
 0.0024412915851272 845.765501462793
 0.00244618395303327 846.743738761211
 0.00245107632093933 847.720548294533
 0.0024559686888454 848.695933569133
 0.00246086105675147 849.669898077875
 0.00246575342465753 850.642445300187
 0.0024706457925636 851.613578702133
 0.00247553816046967 852.583301736493
 0.00248043052837573 853.551617842827
 0.0024853228962818 854.518530447557
 0.00249021526418787 855.484042964032
 0.00249510763209393 856.4481587926
 0.0025 857.410881320684
