 0 124.395180448003
 4.89236790606654e-06 118.696315564269
 9.78473581213307e-06 116.412933696286
 1.46771037181996e-05 114.690662158245
 1.95694716242661e-05 113.258530417275
 2.44618395303327e-05 112.011622245576
 2.93542074363992e-05 110.896150769154
 3.42465753424658e-05 109.880176107861
 3.91389432485323e-05 108.942895399719
 4.40313111545988e-05 108.069864269168
 4.89236790606654e-05 107.250569727332
 5.38160469667319e-05 106.477078231494
 5.87084148727984e-05 105.743228466918
 6.3600782778865e-05 105.044122455997
 6.84931506849315e-05 104.375790388099
 7.3385518590998e-05 103.734961763803
 7.82778864970646e-05 103.118904334423
 8.31702544031311e-05 102.525307798251
 8.80626223091977e-05 101.95219793222
 9.29549902152642e-05 101.397871957269
 9.78473581213307e-05 100.860849052991
 0.000102739726027397 100.339831896044
 0.000107632093933464 99.8336763621339
 0.00011252446183953 99.3413673690313
 0.000117416829745597 98.8619994048363
 0.000122309197651663 98.3947606767344
 0.00012720156555773 97.9389200901418
 0.000132093933463796 97.4938164641419
 0.000136986301369863 97.0588495310828
 0.00014187866927593 96.6334723724035
 0.000146771037181996 96.2171850202037
 0.000151663405088063 95.8095290122768
 0.000156555772994129 95.4100827325481
 0.000161448140900196 95.0184574027782
 0.000166340508806262 94.6342936176484
 0.000171232876712329 94.2572583358513
 0.000176125244618395 93.8870422559361
 0.000181017612524462 93.5233575184542
 0.000185909980430528 93.165935686162
 0.000190802348336595 92.8145259622455
 0.000195694716242661 92.4688936131693
 0.000200587084148728 92.1288185681519
 0.000205479452054795 91.7940941716875
 0.000210371819960861 91.4645260691632
 0.000215264187866928 91.1399312086265
 0.000220156555772994 90.8201369442446
 0.000225048923679061 90.504980229082
 0.000229941291585127 90.1943068865591
 0.000234833659491194 89.8879709514209
 0.00023972602739726 89.5858340722831
 0.000244618395303327 89.2877649688691
 0.000249510763209393 88.9936389379442
 0.00025440313111546 88.7033374027129
 0.000259295499021526 88.4167475010998
 0.000264187866927593 88.1337617088908
 0.00026908023483366 87.854277494197
 0.000273972602739726 87.5781970001173
 0.000278864970645793 87.30542675284
 0.000283757338551859 87.0358773927354
 0.000288649706457926 86.7694634262658
 0.000293542074363992 86.5061029967772
 0.000298434442270059 86.2457176724468
 0.000303326810176125 85.988232249844
 0.000308219178082192 85.733574571723
 0.000313111545988258 85.481675357807
 0.000318003913894325 85.2324680474509
 0.000322896281800391 84.9858886531806
 0.000327788649706458 84.7418756242019
 0.000332681017612524 84.5003697190654
 0.000337573385518591 84.2613138867463
 0.000342465753424658 84.0246531554705
 0.000347358121330724 83.7903345286799
 0.000352250489236791 83.5583068875838
 0.000357142857142857 83.3285208997951
 0.000362035225048924 83.1009289335942
 0.00036692759295499 82.8754849774011
 0.000371819960861057 82.6521445640761
 0.000376712328767123 82.4308646997003
 0.00038160469667319 82.2116037965146
 0.000386497064579256 81.9943216097267
 0.000391389432485323 81.7789791779149
 0.000396281800391389 81.5655387667842
 0.000401174168297456 81.3539638160452
 0.000406066536203523 81.1442188892077
 0.000410958904109589 80.936269626096
 0.000415851272015656 80.7300826979073
 0.000420743639921722 80.5256257646502
 0.000425636007827789 80.3228674348092
 0.000430528375733855 80.1217772270963
 0.000435420743639922 79.9223255341592
 0.000440313111545988 79.7244835881238
 0.000445205479452055 79.528223427861
 0.000450097847358121 79.3335178678726
 0.000454990215264188 79.1403404686989
 0.000459882583170254 78.9486655087604
 0.000464774951076321 78.7584679575464
 0.000469667318982388 78.5697234500759
 0.000474559686888454 78.3824082625557
 0.000479452054794521 78.1964992891686
 0.000484344422700587 78.0119740199284
 0.000489236790606654 77.8288105195422
 0.00049412915851272 77.646987407225
 0.000499021526418787 77.4664838374143
 0.000503913894324853 77.2872794813364
 0.00050880626223092 77.1093545093788
 0.000513698630136986 76.9326895742265
 0.000518590998043053 76.7572657947216
 0.000523483365949119 76.5830647404092
 0.000528375733855186 76.4100684167335
 0.000533268101761252 76.2382592508526
 0.000538160469667319 76.0676200780386
 0.000543052837573386 75.8981341286355
 0.000547945205479452 75.7297850155467
 0.000552837573385519 75.5625567222257
 0.000557729941291585 75.396433591146
 0.000562622309197652 75.2314003127266
 0.000567514677103718 75.0674419146922
 0.000572407045009785 74.9045437518462
 0.000577299412915851 74.7426914962384
 0.000582191780821918 74.5818711277076
 0.000587084148727984 74.4220689247834
 0.000591976516634051 74.263271455929
 0.000596868884540117 74.1054655711112
 0.000601761252446184 73.9486383936811
 0.000606653620352251 73.792777312553
 0.000611545988258317 73.6378699746681
 0.000616438356164384 73.4839042777291
 0.00062133072407045 73.3308683631957
 0.000626223091976517 73.1787506095286
 0.000631115459882583 73.0275396256716
 0.00063600782778865 72.8772242447616
 0.000640900195694716 72.7277935180568
 0.000645792563600783 72.5792367090742
 0.000650684931506849 72.4315432879271
 0.000655577299412916 72.2847029258553
 0.000660469667318982 72.1387054899388
 0.000665362035225049 71.9935410379887
 0.000670254403131116 71.8491998136073
 0.000675146771037182 71.7056722414108
 0.000680039138943249 71.562948922409
 0.000684931506849315 71.4210206295342
 0.000689823874755382 71.2798783033141
 0.000694716242661448 71.1395130476843
 0.000699608610567515 70.9999161259328
 0.000704500978473581 70.861078956773
 0.000709393346379648 70.7229931105398
 0.000714285714285714 70.5856503055039
 0.000719178082191781 70.4490424043005
 0.000724070450097847 70.3131614104673
 0.000728962818003914 70.1779994650879
 0.00073385518590998 70.0435488435377
 0.000738747553816047 69.9098019523271
 0.000743639921722113 69.7767513260394
 0.00074853228962818 69.6443896243593
 0.000753424657534247 69.5127096291895
 0.000758317025440313 69.3817042418518
 0.00076320939334638 69.2513664803697
 0.000768101761252446 69.1216894768296
 0.000772994129158513 68.9926664748178
 0.000777886497064579 68.8642908269311
 0.000782778864970646 68.7365559923581
 0.000787671232876712 68.6094555345284
 0.000792563600782779 68.482983118828
 0.000797455968688845 68.3571325103787
 0.000802348336594912 68.2318975718785
 0.000807240704500978 68.1072722615018
 0.000812133072407045 67.9832506308573
 0.000817025440313112 67.8598268230007
 0.000821917808219178 67.7369950705026
 0.000826810176125245 67.6147496935665
 0.000831702544031311 67.4930850981987
 0.000836594911937378 67.3719957744265
 0.000841487279843444 67.2514762945623
 0.000846379647749511 67.1315213115154
 0.000851272015655577 67.012125557146
 0.000856164383561644 66.8932838406631
 0.00086105675146771 66.7749910470631
 0.000865949119373777 66.6572421356093
 0.000870841487279843 66.5400321383493
 0.00087573385518591 66.4233561586707
 0.000880626223091977 66.3072093698931
 0.000885518590998043 66.1915870138954
 0.00089041095890411 66.0764843997776
 0.000895303326810176 65.9618969025553
 0.000900195694716243 65.8478199618871
 0.000905088062622309 65.7342490808333
 0.000909980430528376 65.621179824644
 0.000914872798434442 65.508607819578
 0.000919765166340509 65.3965287517491
 0.000924657534246575 65.2849383660007
 0.000929549902152642 65.1738324648076
 0.000934442270058708 65.0632069072034
 0.000939334637964775 64.9530576077333
 0.000944227005870842 64.8433805354323
 0.000949119373776908 64.7341717128263
 0.000954011741682975 64.6254272149574
 0.000958904109589041 64.5171431684314
 0.000963796477495108 64.4093157504869
 0.000968688845401174 64.301941188087
 0.000973581213307241 64.1950157570301
 0.000978473581213307 64.0885357810824
 0.000983365949119374 63.9824976311293
 0.00098825831702544 63.8768977243456
 0.000993150684931507 63.7717325233851
 0.000998043052837573 63.666998535588
 0.00100293542074364 63.5626923122052
 0.00100782778864971 63.4588104476407
 0.00101272015655577 63.3553495787102
 0.00101761252446184 63.2523063839156
 0.00102250489236791 63.149677582736
 0.00102739726027397 63.0474599349335
 0.00103228962818004 62.9456502398741
 0.00103718199608611 62.8442453358631
 0.00104207436399217 62.7432420994952
 0.00104696673189824 62.6426374450177
 0.00105185909980431 62.5424283237073
 0.00105675146771037 62.4426117232605
 0.00106164383561644 62.3431846671967
 0.0010665362035225 62.2441442142729
 0.00107142857142857 62.1454874579115
 0.00107632093933464 62.0472115256401
 0.0010812133072407 61.9493135785413
 0.00108610567514677 61.8517908107159
 0.00109099804305284 61.7546404487554
 0.0010958904109589 61.6578597512257
 0.00110078277886497 61.5614460081619
 0.00110567514677104 61.465396540572
 0.0011105675146771 61.3697086999518
 0.00111545988258317 61.2743798678086
 0.00112035225048924 61.1794074551949
 0.0011252446183953 61.084788902251
 0.00113013698630137 60.9905216777566
 0.00113502935420744 60.8966032786917
 0.0011399217221135 60.8030312298052
 0.00114481409001957 60.7098030831928
 0.00114970645792564 60.6169164178824
 0.0011545988258317 60.5243688394278
 0.00115949119373777 60.4321579795104
 0.00116438356164384 60.3402814955478
 0.0011692759295499 60.2487370703105
 0.00117416829745597 60.157522411546
 0.00117906066536204 60.0666352516093
 0.0011839530332681 59.9760733471006
 0.00118884540117417 59.8858344785107
 0.00119373776908023 59.7959164498711
 0.0011986301369863 59.7063170884127
 0.00120352250489237 59.6170342442293
 0.00120841487279843 59.5280657899481
 0.0012133072407045 59.4394096204058
 0.00121819960861057 59.3510636523309
 0.00122309197651663 59.2630258240318
 0.0012279843444227 59.1752940950903
 0.00123287671232877 59.0878664460607
 0.00123776908023483 59.0007408781747
 0.0012426614481409 58.9139154130511
 0.00124755381604697 58.8273880924107
 0.00125244618395303 58.741156977797
 0.0012573385518591 58.6552201503006
 0.00126223091976517 58.5695757102895
 0.00126712328767123 58.484221777144
 0.0012720156555773 58.3991564889956
 0.00127690802348337 58.314378002471
 0.00128180039138943 58.2298844924408
 0.0012866927592955 58.1456741517717
 0.00129158512720157 58.0617451910837
 0.00129647749510763 57.9780958385113
 0.0013013698630137 57.8947243394685
 0.00130626223091977 57.8116289564181
 0.00131115459882583 57.7288079686451
 0.0013160469667319 57.6462596720334
 0.00132093933463796 57.5639823788464
 0.00132583170254403 57.481974417512
 0.0013307240704501 57.40023413241
 0.00133561643835616 57.3187598836643
 0.00134050880626223 57.2375500469372
 0.0013454011741683 57.1566030132287
 0.00135029354207436 57.0759171886774
 0.00135518590998043 56.9954909943662
 0.0013600782778865 56.9153228661302
 0.00136497064579256 56.8354112543679
 0.00136986301369863 56.755754623856
 0.0013747553816047 56.6763514535666
 0.00137964774951076 56.5972002364876
 0.00138454011741683 56.5182994794458
 0.0013894324853229 56.4396477029334
 0.00139432485322896 56.3612434409365
 0.00139921722113503 56.2830852407667
 0.0014041095890411 56.2051716628958
 0.00140900195694716 56.1275012807921
 0.00141389432485323 56.0500726807605
 0.0014187866927593 55.972884461784
 0.00142367906066536 55.8959352353681
 0.00142857142857143 55.8192236253884
 0.0014334637964775 55.7427482679389
 0.00143835616438356 55.6665078111845
 0.00144324853228963 55.5905009152142
 0.00144814090019569 55.5147262518977
 0.00145303326810176 55.4391825047435
 0.00145792563600783 55.3638683687597
 0.00146281800391389 55.2887825503161
 0.00146771037181996 55.2139237670097
 0.00147260273972603 55.1392907475309
 0.00147749510763209 55.0648822315323
 0.00148238747553816 54.9906969695
 0.00148727984344423 54.9167337226257
 0.00149217221135029 54.8429912626816
 0.00149706457925636 54.7694683718966
 0.00150195694716243 54.6961638428352
 0.00150684931506849 54.6230764782769
 0.00151174168297456 54.5502050910986
 0.00151663405088063 54.4775485041579
 0.00152152641878669 54.4051055501785
 0.00152641878669276 54.3328750716373
 0.00153131115459883 54.260855920653
 0.00153620352250489 54.1890469588762
 0.00154109589041096 54.1174470573813
 0.00154598825831703 54.0460550965602
 0.00155088062622309 53.9748699660168
 0.00155577299412916 53.9038905644636
 0.00156066536203523 53.83311579962
 0.00156555772994129 53.7625445881109
 0.00157045009784736 53.6921758553682
 0.00157534246575342 53.6220085355327
 0.00158023483365949 53.5520415713579
 0.00158512720156556 53.4822739141145
 0.00159001956947162 53.4127045234973
 0.00159491193737769 53.3433323675322
 0.00159980430528376 53.2741564224855
 0.00160469667318982 53.205175672774
 0.00160958904109589 53.1363891108761
 0.00161448140900196 53.0677957372447
 0.00161937377690802 52.999394560221
 0.00162426614481409 52.9311845959494
 0.00162915851272016 52.8631648682937
 0.00163405088062622 52.7953344087545
 0.00163894324853229 52.7276922563874
 0.00164383561643836 52.660237457723
 0.00164872798434442 52.5929690666869
 0.00165362035225049 52.5258861445222
 0.00165851272015656 52.4589877597115
 0.00166340508806262 52.392272987901
 0.00166829745596869 52.3257409118257
 0.00167318982387476 52.2593906212344
 0.00167808219178082 52.1932212128173
 0.00168297455968689 52.1272317901334
 0.00168786692759296 52.0614214635391
 0.00169275929549902 51.9957893501182
 0.00169765166340509 51.9303345736123
 0.00170254403131115 51.8650562643524
 0.00170743639921722 51.7999535591912
 0.00171232876712329 51.7350256014365
 0.00171722113502935 51.6702715407851
 0.00172211350293542 51.6056905332583
 0.00172700587084149 51.5412817411372
 0.00173189823874755 51.4770443328998
 0.00173679060665362 51.4129774831579
 0.00174168297455969 51.3490803725964
 0.00174657534246575 51.2853521879112
 0.00175146771037182 51.2217921217498
 0.00175636007827789 51.1583993726519
 0.00176125244618395 51.0951731449904
 0.00176614481409002 51.0321126489137
 0.00177103718199609 50.9692171002887
 0.00177592954990215 50.9064857206441
 0.00178082191780822 50.8439177371147
 0.00178571428571429 50.7815123823867
 0.00179060665362035 50.7192688946427
 0.00179549902152642 50.6571865175088
 0.00180039138943249 50.5952645000011
 0.00180528375733855 50.5335020964734
 0.00181017612524462 50.4718985665654
 0.00181506849315068 50.4104531751522
 0.00181996086105675 50.3491651922931
 0.00182485322896282 50.2880338931822
 0.00182974559686888 50.2270585580992
 0.00183463796477495 50.1662384723606
 0.00183953033268102 50.1055729262718
 0.00184442270058708 50.0450612150795
 0.00184931506849315 49.9847026389252
 0.00185420743639922 49.9244965027982
 0.00185909980430528 49.8644421164909
 0.00186399217221135 49.8045387945523
 0.00186888454011742 49.7447858562445
 0.00187377690802348 49.685182625498
 0.00187866927592955 49.6257284308681
 0.00188356164383562 49.5664226054918
 0.00188845401174168 49.5072644870456
 0.00189334637964775 49.4482534177029
 0.00189823874755382 49.3893887440927
 0.00190313111545988 49.3306698172587
 0.00190802348336595 49.2720959926182
 0.00191291585127202 49.2136666299222
 0.00191780821917808 49.1553810932161
 0.00192270058708415 49.0972387507998
 0.00192759295499022 49.0392389751894
 0.00193248532289628 48.9813811430789
 0.00193737769080235 48.9236646353022
 0.00194227005870841 48.8660888367956
 0.00194716242661448 48.808653136561
 0.00195205479452055 48.7513569276293
 0.00195694716242661 48.6941996070239
 0.00196183953033268 48.6371805757257
 0.00196673189823875 48.5802992386369
 0.00197162426614481 48.5235550045466
 0.00197651663405088 48.4669472860962
 0.00198140900195695 48.410475499745
 0.00198630136986301 48.3541390657368
 0.00199119373776908 48.2979374080663
 0.00199608610567515 48.2418699544459
 0.00200097847358121 48.1859361362735
 0.00200587084148728 48.1301353885998
 0.00201076320939335 48.0744671500967
 0.00201565557729941 48.0189308630254
 0.00202054794520548 47.9635259732056
 0.00202544031311155 47.9082519299842
 0.00203033268101761 47.853108186205
 0.00203522504892368 47.7980941981787
 0.00204011741682975 47.7432094256523
 0.00204500978473581 47.6884533317806
 0.00204990215264188 47.6338253830961
 0.00205479452054795 47.5793250494805
 0.00205968688845401 47.5249518041362
 0.00206457925636008 47.4707051235575
 0.00206947162426614 47.4165844875034
 0.00207436399217221 47.3625893789694
 0.00207925636007828 47.3087192841601
 0.00208414872798434 47.2549736924626
 0.00208904109589041 47.2013520964191
 0.00209393346379648 47.1478539917008
 0.00209882583170254 47.0944788770817
 0.00210371819960861 47.0412262544123
 0.00210861056751468 46.9880956285942
 0.00211350293542074 46.9350865075549
 0.00211839530332681 46.8821984022222
 0.00212328767123288 46.8294308264998
 0.00212818003913894 46.7767832972422
 0.00213307240704501 46.724255334231
 0.00213796477495108 46.6718464601502
 0.00214285714285714 46.6195562005627
 0.00214774951076321 46.5673840838867
 0.00215264187866928 46.5153296413722
 0.00215753424657534 46.4633924070781
 0.00216242661448141 46.411571917849
 0.00216731898238748 46.3598677132933
 0.00217221135029354 46.3082793357597
 0.00217710371819961 46.2568063303163
 0.00218199608610567 46.2054482447275
 0.00218688845401174 46.1542046294332
 0.00219178082191781 46.1030750375266
 0.00219667318982388 46.0520590247336
 0.00220156555772994 46.0011561493911
 0.00220645792563601 45.9503659724268
 0.00221135029354207 45.8996880573379
 0.00221624266144814 45.8491219701714
 0.00222113502935421 45.7986672795032
 0.00222602739726027 45.7483235564186
 0.00223091976516634 45.6980903744922
 0.00223581213307241 45.6479673097684
 0.00224070450097847 45.597953940742
 0.00224559686888454 45.548049848339
 0.00225048923679061 45.4982546158974
 0.00225538160469667 45.4485678291485
 0.00226027397260274 45.3989890761983
 0.00226516634050881 45.3495179475091
 0.00227005870841487 45.3001540358806
 0.00227495107632094 45.2508969364328
 0.00227984344422701 45.2017462465872
 0.00228473581213307 45.1527015660494
 0.00228962818003914 45.1037624967916
 0.00229452054794521 45.0549286430351
 0.00229941291585127 45.006199611233
 0.00230430528375734 44.9575750100531
 0.00230919765166341 44.9090544503613
 0.00231409001956947 44.8606375452043
 0.00231898238747554 44.8123239097937
 0.0023238747553816 44.7641131614889
 0.00232876712328767 44.7160049197815
 0.00233365949119374 44.6679988062785
 0.0023385518590998 44.620094444687
 0.00234344422700587 44.5722914607981
 0.00234833659491194 44.5245894824709
 0.002353228962818 44.4769881396179
 0.00235812133072407 44.4294870641886
 0.00236301369863014 44.3820858901552
 0.0023679060665362 44.3347842534969
 0.00237279843444227 44.2875817921852
 0.00237769080234834 44.2404781461693
 0.0023825831702544 44.1934729573611
 0.00238747553816047 44.1465658696211
 0.00239236790606654 44.0997565287437
 0.0023972602739726 44.0530445824431
 0.00240215264187867 44.0064296803391
 0.00240704500978474 43.9599114739433
 0.0024119373776908 43.9134896166454
 0.00241682974559687 43.8671637636988
 0.00242172211350294 43.8209335722078
 0.002426614481409 43.7747987011138
 0.00243150684931507 43.7287588111819
 0.00243639921722113 43.6828135649878
 0.0024412915851272 43.6369626269048
 0.00244618395303327 43.5912056630905
 0.00245107632093933 43.5455423414742
 0.0024559686888454 43.4999723317444
 0.00246086105675147 43.4544953053356
 0.00246575342465753 43.4091109354161
 0.0024706457925636 43.363818896876
 0.00247553816046967 43.3186188663139
 0.00248043052837573 43.273510522026
 0.0024853228962818 43.2284935439931
 0.00249021526418787 43.1835676138688
 0.00249510763209393 43.1387324149682
 0.0025 43.0939876322555
