# Created by Octave 4.0.0, Tue Jun 04 12:51:20 2019 CEST <chetan@chetan-TTL-TEKNOPRO>
# name: E
# type: matrix
# rows: 85
# columns: 10
 481.0286276313903 7.138395926131188 0 8.076911833036814 0 0.05110664712065141 0 209.7343936889109 0 1
 482.7786276313903 7.154510308962847 0 8.524613846950119 0 0.05099934836467199 0 219.8514314566133 0 1
 485.7786276313903 7.140967888213082 0 -3.298449368985843 0 0.05111956185644208 0 260.8972013257109 0 1
 490.1286276313904 7.158345100308074 0 -1.377861542986246 0 0.05099392974910712 0 137.1227343610114 0 1
 491.7786276313904 7.157743541814522 0 -2.202067581194813 0 0.05241440003518532 0 131.2096670243652 0 1
 499.5786276313905 7.157360137059564 0 -7.52134267077493 0 0.05045108170370787 0 225.7527467595538 0 1
 507.3786276313905 7.142428171337914 0 -24.59358194974984 0 0.05072779097495452 0 145.2359869589243 0 1
 515.1786276313904 7.147732235040784 0 -60.40466607181854 0 0.05181753000482248 0 253.0653793966402 0 1
 522.9786276313902 7.148532321076496 0 -27.93221231680778 0 0.05281895898797677 0 135.7188806504147 0 1
 530.7786276313899 7.143063652749553 0 -27.73946894122626 0 0.05214706200066245 0 231.5947843913031 0 1
 538.5786276313896 7.147836639450175 0 -11.76656810502737 0 0.05158805179829007 0 115.3702502517889 0 1
 546.3786276313893 7.149879265816828 0 -9.590909080753887 0 0.05764111856978645 0 207.9870207252912 0 1
 554.1786276313891 7.138803982504083 0 -16.51091621062427 0 0.05630469745908726 0 121.9799825680124 0 1
 561.9786276313888 7.137407935238462 0 1.287702331402507 0 0.05627656616358014 0 203.1942114644866 0 1
 569.7786276313885 7.148854604736776 0 32.85226087650929 0 0.05663340482002207 0 129.976755279536 0 1
 577.5786276313883 7.148977344368407 0 69.99530420704129 0 0.05094587989202291 0 325.5234942929672 0 1
 585.378627631388 7.169390520046909 0 3.602018545091337 0 0.05110181370571636 0 128.4329362499199 0 1
 593.1786276313877 7.169653795480881 0 -53.83138635230392 0 0.05680079457449742 0 268.1431651302258 0 1
 600.9786276313874 7.172237368341818 0 -16.30254738003427 0 0.05557963412395216 0 110.2218650688629 0 1
 608.7786276313872 7.166591518488524 0 -1.22732471472311 0 0.05744703468163906 0 202.2052064696435 0 1
 616.5786276313869 7.169541777431655 0 18.21217668530484 0 0.05453460841098619 0 119.8377100960233 0 1
 624.3786276313866 7.167195396240673 0 8.883080838929873 0 0.05973499552930912 0 221.7059153378069 0 1
 632.1786276313863 7.161928210186724 0 9.412018760628923 0 0.06246617874453033 0 152.617367710364 0 1
 639.9786276313861 7.160833308693919 0 12.74769916653168 0 0.06479217282503619 0 236.9350184704532 0 1
 647.7786276313858 7.176571265884086 0 -14.7697169766258 0 0.06650103683862911 0 165.2174718055301 0 1
 655.5786276313855 7.171881103097371 0 -19.41751435330213 0 0.0529944102840384 0 172.5946156318008 0 1
 663.3786276313853 7.164298253392123 0 -23.59453540713793 0 0.05314580608585807 0 95.69039834178866 0 1
 671.178627631385 7.165841171076394 0 -30.53284808041176 0 0.05306010519156869 0 252.5462030179744 0 1
 678.9786276313847 7.17797627141555 0 37.11095939876402 0 0.05396967207143364 0 121.565653138426 0 1
 686.7786276313844 7.172895311771643 0 94.09397985278561 0 0.05069138932050238 0 236.6197116857287 0 1
 694.5786276313842 7.145104808202245 0 41.0823196189035 0 0.05155441174909581 0 125.5758983019047 0 1
 702.3786276313839 7.149260529707423 0 36.36505558494387 0 0.05086969045386903 0 210.9010933481044 0 1
 710.1786276313836 7.144305881998898 0 11.4641183649382 0 0.05097612649406719 0 86.38235684293446 0 1
 717.9786276313833 7.143597550207569 0 -15.23962965873182 0 0.05108644115945793 0 258.3610714338306 0 1
 725.7786276313831 7.1387624243071 0 39.3761702047457 0 0.05078215452841653 0 99.73950279295421 0 1
 733.5786276313828 7.139606559522729 0 93.55500975410574 0 0.05555169914337771 0 255.1569864608879 0 1
 741.3786276313825 7.151949955963465 0 30.44167548575308 0 0.0543038656556955 0 120.4050544339529 0 1
 749.1786276313823 7.150255576807292 0 9.370342244628311 0 0.0546981616811333 0 192.2550279127603 0 1
 756.978627631382 7.153099477319415 0 8.944823522949799 0 0.05483199958228462 0 155.0633135843562 0 1
 764.7786276313817 7.155634517116458 0 61.06339599834578 0 0.0550266801946506 0 215.0768187904879 0 1
 772.5786276313814 7.138116083213643 0 6.24777585137025 0 0.05725231098997603 0 150.790774828167 0 1
 780.3786276313812 7.140930602991561 0 -16.8783504911328 0 0.0529567189492725 0 207.6533289520478 0 1
 788.1786276313809 7.141554633755622 0 11.0591974556184 0 0.05247721147708167 0 104.4461178188461 0 1
 795.9786276313806 7.141658712813473 0 62.10934418776748 0 0.05170538194017901 0 201.3210723318202 0 1
 803.7786276313803 7.154935050066724 0 28.82909981497187 0 0.05101628725768784 0 123.2258386750672 0 1
 811.5786276313801 7.150585869097438 0 44.89022322334728 0 0.05212123528184415 0 173.5757691330463 0 1
 819.3786276313798 7.156008500483675 0 13.15488513713914 0 0.05161244580631756 0 100.4730139524499 0 1
 827.1786276313795 7.157896732180494 0 -38.96756807628056 0 0.05235333176585748 0 244.2868479682958 0 1
 834.9786276313793 7.16537031588497 0 13.25851978224062 0 0.05228234343957567 0 104.389619923504 0 1
 842.778627631379 7.160139300200315 0 29.34193510826153 0 0.05245467332446983 0 206.7020987721532 0 1
 850.5786276313787 7.150229084828337 0 -9.376951906905546 0 0.05211363397982225 0 87.7126884063678 0 1
 858.3786276313784 7.151618394985514 0 -44.15705280592586 0 0.05277098423322994 0 147.9166126255252 0 1
 866.1786276313782 7.151926586223064 0 -29.3030362122763 0 0.05302579790950436 0 80.1788386768485 0 1
 873.9786276313779 7.151448513728639 0 -17.24496162582177 0 0.05309676294067272 0 174.6142044031182 0 1
 881.7786276313776 7.151900591645536 0 16.77201325099383 0 0.05293657306061945 0 108.2778335267132 0 1
 889.5786276313773 7.154892501099991 0 17.97280160006098 0 0.05665170631694228 0 155.6289759446151 0 1
 897.3786276313771 7.155778848497753 0 -3.117666409064287 0 0.05717642671192721 0 93.48099261066891 0 1
 905.1786276313768 7.156174272920086 0 -23.44115334278527 0 0.0556124230694106 0 165.2931009281265 0 1
 912.9786276313765 7.158869794520165 0 -5.147194545287544 0 0.05607895188608892 0 87.23002752206396 0 1
 920.7786276313763 7.157117320087731 0 -0.6803406766428161 0 0.05275469539272181 0 148.9588220357814 0 1
 928.578627631376 7.154883049882245 0 -11.72536608735986 0 0.05209983415345842 0 100.8078117083403 0 1
 936.3786276313757 7.154720853845272 0 -38.64203590228178 0 0.05651095990709639 0 141.4563825388116 0 1
 944.1786276313754 7.155858141529071 0 -29.446949705261 0 0.05655307735017291 0 99.00815733627881 0 1
 951.9786276313752 7.155454055087634 0 -30.25873319723389 0 0.05645389818967227 0 184.1758408179334 0 1
 959.7786276313749 7.154127101663879 0 3.143063935205196 0 0.05661918468213289 0 97.48794968114105 0 1
 967.5786276313746 7.155102788192093 0 27.05142921499859 0 0.0523111552027915 0 155.1299684636736 0 1
 975.3786276313743 7.155374544070773 0 37.91395803133662 0 0.05312246474506422 0 85.92369210385857 0 1
 983.1786276313741 7.154679485806795 0 75.96263846535545 0 0.0524995304979581 0 214.593977778292 0 1
 990.9786276313738 7.158721109667766 0 25.04089044819002 0 0.05283023060788633 0 127.5647386062609 0 1
 998.7786276313735 7.159027626112876 0 21.96769558507104 0 0.05117864394618052 0 144.3411400160666 0 1
 1006.578627631373 7.154227788805529 0 -19.12110327344574 0 0.05098084960493852 0 111.8703035146306 0 1
 1014.378627631373 7.157474591951079 0 -28.18177577636868 0 0.05069074685274249 0 170.6490530710041 0 1
 1022.178627631373 7.161474493515143 0 -2.516331352480255 0 0.05064545595725158 0 71.14539398161962 0 1
 1032.149321823372 7.161290572062681 0 31.02254431669634 0 0.05087456698577681 0 179.7971756668692 0 1
 1034.620016015372 7.16008141521983 0 48.16407723733418 0 0.05165737945059192 0 272.0146151135717 0 1
 1037.090710207372 7.196420816028156 0 28.69686806790325 0 0.05160600465165024 0 162.3852372579757 0 1
 1039.561404399372 7.173526306757529 0 26.69288542109081 0 0.05152544480106409 0 194.6626186791406 0 1
 1052.561404399372 7.180956491683671 0 -2.73891777162182 0 0.05201070765470911 0 69.2121482210152 0 1
 1065.561404399372 7.181097108092808 0 -28.22729550311953 0 0.05271070215701376 0 206.4506120517488 0 1
 1078.561404399372 7.173495751023368 0 -18.56347035865513 0 0.05285660805229428 0 95.13057051585737 0 1
 1091.561404399372 7.173054398335686 0 -13.50605108532006 0 0.05483614059934899 0 201.366490404148 0 1
 1113.741012929372 7.175732039195847 0 -23.52409853979803 0 0.05399128050467946 0 101.7825928652624 0 1
 1120.485127809372 7.175828010400131 0 -38.65434343135296 0 0.05279801886972216 0 248.3406562477187 0 1
 1129.689683359372 7.181178981042541 0 -22.64573573116866 0 0.05346423324562175 0 196.2223815505948 0 1
 1129.689683359372 7.190658401878711 0 -21.18316101228092 0 0.05250307152200078 0 181.9847234015832 0 1


