 0 1228.40022431937
 4.89236790606654e-06 1143.05868065859
 9.78473581213307e-06 1109.4768020479
 1.46771037181996e-05 1084.38173079204
 1.95694716242661e-05 1063.66888990477
 2.44618395303327e-05 1045.74991810758
 2.93542074363992e-05 1029.81094727499
 3.42465753424658e-05 1015.36893361827
 3.91389432485323e-05 1002.10942526611
 4.40313111545988e-05 989.814194810402
 4.89236790606654e-05 978.324490954687
 5.38160469667319e-05 967.520573581893
 5.87084148727984e-05 957.309497253051
 6.3600782778865e-05 947.617411322221
 6.84931506849315e-05 938.38448969116
 7.3385518590998e-05 929.561469584486
 7.82778864970646e-05 921.107216199151
 8.31702544031311e-05 912.98696449359
 8.80626223091977e-05 905.171021365874
 9.29549902152642e-05 897.633788973497
 9.78473581213307e-05 890.353017134341
 0.000102739726027397 883.309222395686
 0.000107632093933464 876.485230507184
 0.00011252446183953 869.865811708492
 0.000117416829745597 863.437386816836
 0.000122309197651663 857.187788015544
 0.00012720156555773 851.106062398771
 0.000132093933463796 845.182309292216
 0.000136986301369863 839.407544516428
 0.00014187866927593 833.773586334937
 0.000146771037181996 828.272959000294
 0.000151663405088063 822.898810691044
 0.000156555772994129 817.644843301049
 0.000161448140900196 812.505252055234
 0.000166340508806262 807.474673322614
 0.000171232876712329 802.548139307272
 0.000176125244618395 797.721038541655
 0.000181017612524462 792.989081299825
 0.000185909980430528 788.348269202538
 0.000190802348336595 783.794868410001
 0.000195694716242661 779.325385898391
 0.000200587084148728 774.936548397739
 0.000205479452054795 770.625283635498
 0.000210371819960861 766.388703584892
 0.000215264187866928 762.224089462492
 0.000220156555772994 758.128878257053
 0.000225048923679061 754.100650603023
 0.000229941291585127 750.1371198384
 0.000234833659491194 746.236122108735
 0.00023972602739726 742.395607397696
 0.000244618395303327 738.613631380466
 0.000249510763209393 734.88834800965
 0.00025440313111546 731.218002754877
 0.000259295499021526 727.600926427086
 0.000264187866927593 724.035529526947
 0.00026908023483366 720.520297064117
 0.000273972602739726 717.053783800325
 0.000278864970645793 713.634609874727
 0.000283757338551859 710.261456774696
 0.000288649706457926 706.933063619325
 0.000293542074363992 703.648223726535
 0.000298434442270059 700.405781437812
 0.000303326810176125 697.204629177364
 0.000308219178082192 694.043704724926
 0.000313111545988258 690.921988683566
 0.000318003913894325 687.838502125759
 0.000322896281800391 684.792304402626
 0.000327788649706458 681.782491102775
 0.000332681017612524 678.808192148454
 0.000337573385518591 675.868570017898
 0.000342465753424658 672.962818083846
 0.000347358121330724 670.09015905906
 0.000352250489236791 667.249843540592
 0.000357142857142857 664.441148645231
 0.000362035225048924 661.663376729261
 0.00036692759295499 658.915854186278
 0.000371819960861057 656.197930317314
 0.000376712328767123 653.508976268051
 0.00038160469667319 650.848384028327
 0.000386497064579256 648.215565489522
 0.000391389432485323 645.609951555817
 0.000396281800391389 643.0309913056
 0.000401174168297456 640.478151199612
 0.000406066536203523 637.950914332702
 0.000410958904109589 635.448779726297
 0.000415851272015656 632.971261658909
 0.000420743639921722 630.517889032223
 0.000425636007827789 628.08820477048
 0.000430528375733855 625.681765251063
 0.000435420743639922 623.298139764304
 0.000440313111545988 620.936910000735
 0.000445205479452055 618.597669564078
 0.000450097847358121 616.28002350843
 0.000454990215264188 613.98358789819
 0.000459882583170254 611.707989389372
 0.000464774951076321 609.452864831068
 0.000469667318982388 607.217860885873
 0.000474559686888454 605.002633668197
 0.000479452054794521 602.806848399436
 0.000484344422700587 600.630179079068
 0.000489236790606654 598.472308170768
 0.00049412915851272 596.332926302733
 0.000499021526418787 594.211731981431
 0.000503913894324853 592.108431318044
 0.00050880626223092 590.02273776694
 0.000513698630136986 587.95437187552
 0.000518590998043053 585.90306104485
 0.000523483365949119 583.868539300522
 0.000528375733855186 581.850547073205
 0.000533268101761252 579.848830988397
 0.000538160469667319 577.863143664918
 0.000543052837573386 575.893243521691
 0.000547945205479452 573.938894592413
 0.000552837573385519 571.999866347722
 0.000557729941291585 570.075933524487
 0.000562622309197652 568.166875961896
 0.000567514677103718 566.272478443984
 0.000572407045009785 564.392530548331
 0.000577299412915851 562.526826500609
 0.000582191780821918 560.675165034718
 0.000587084148727984 558.837349258255
 0.000591976516634051 557.01318652306
 0.000596868884540117 555.202488300613
 0.000601761252446184 553.405070062066
 0.000606653620352251 551.620751162695
 0.000611545988258317 549.849354730575
 0.000616438356164384 548.090707559303
 0.00062133072407045 546.344640004573
 0.000626223091976517 544.610985884452
 0.000631115459882583 542.88958238319
 0.00063600782778865 541.180269958409
 0.000640900195694716 539.482892251537
 0.000645792563600783 537.797296001342
 0.000650684931506849 536.123330960439
 0.000655577299412916 534.460849814645
 0.000660469667318982 532.809708105071
 0.000665362035225049 531.169764152828
 0.000670254403131116 529.54087898625
 0.000675146771037182 527.922916270529
 0.000680039138943249 526.315742239663
 0.000684931506849315 524.719225630632
 0.000689823874755382 523.133237619704
 0.000694716242661448 521.557651760797
 0.000699608610567515 519.99234392581
 0.000704500978473581 518.437192246855
 0.000709393346379648 516.892077060302
 0.000714285714285714 515.356880852588
 0.000719178082191781 513.831488207706
 0.000724070450097847 512.315785756321
 0.000728962818003914 510.809662126446
 0.00073385518590998 509.313007895625
 0.000738747553816047 507.825715544564
 0.000743639921722113 506.347679412156
 0.00074853228962818 504.878795651859
 0.000753424657534247 503.418962189361
 0.000758317025440313 501.968078681499
 0.00076320939334638 500.526046476386
 0.000768101761252446 499.092768574699
 0.000772994129158513 497.668149592083
 0.000777886497064579 496.252095722648
 0.000782778864970646 494.844514703503
 0.000787671232876712 493.445315780298
 0.000792563600782779 492.054409673748
 0.000797455968688845 490.671708547085
 0.000802348336594912 489.29712597443
 0.000807240704500978 487.930576910039
 0.000812133072407045 486.571977658393
 0.000817025440313112 485.221245845116
 0.000821917808219178 483.878300388679
 0.000826810176125245 482.543061472877
 0.000831702544031311 481.215450520041
 0.000836594911937378 479.895390164974
 0.000841487279843444 478.582804229575
 0.000846379647749511 477.277617698143
 0.000851272015655577 475.979756693322
 0.000856164383561644 474.689148452683
 0.00086105675146771 473.405721305911
 0.000865949119373777 472.129404652586
 0.000870841487279843 470.860128940535
 0.00087573385518591 469.597825644737
 0.000880626223091977 468.342427246766
 0.000885518590998043 467.093867214753
 0.00089041095890411 465.852079983858
 0.000895303326810176 464.617000937223
 0.000900195694716243 463.388566387408
 0.000905088062622309 462.166713558277
 0.000909980430528376 460.951380567344
 0.000914872798434442 459.742506408536
 0.000919765166340509 458.540030935391
 0.000924657534246575 457.343894844654
 0.000929549902152642 456.154039660272
 0.000934442270058708 454.970407717773
 0.000939334637964775 453.792942149021
 0.000944227005870842 452.621586867328
 0.000949119373776908 451.456286552923
 0.000954011741682975 450.296986638758
 0.000958904109589041 449.143633296649
 0.000963796477495108 447.996173423742
 0.000968688845401174 446.854554629288
 0.000973581213307241 445.718725221724
 0.000978473581213307 444.588634196054
 0.000983365949119374 443.464231221513
 0.00098825831702544 442.345466629515
 0.000993150684931507 441.23229140187
 0.000998043052837573 440.124657159271
 0.00100293542074364 439.022516150034
 0.00100782778864971 437.925821239091
 0.00101272015655577 436.834525897227
 0.00101761252446184 435.748584190556
 0.00102250489236791 434.667950770221
 0.00102739726027397 433.592580862333
 0.00103228962818004 432.522430258113
 0.00103718199608611 431.457455304259
 0.00104207436399217 430.397612893518
 0.00104696673189824 429.342860455453
 0.00105185909980431 428.293155947422
 0.00105675146771037 427.248457845733
 0.00106164383561644 426.208725136995
 0.0010665362035225 425.173917309653
 0.00107142857142857 424.143994345693
 0.00107632093933464 423.118916712526
 0.0010812133072407 422.098645355038
 0.00108610567514677 421.083141687807
 0.00109099804305284 420.072367587479
 0.0010958904109589 419.066285385298
 0.00110078277886497 418.064857859794
 0.00110567514677104 417.068048229613
 0.0011105675146771 416.075820146498
 0.00111545988258317 415.08813768841
 0.00112035225048924 414.104965352784
 0.0011252446183953 413.126268049922
 0.00113013698630137 412.15201109652
 0.00113502935420744 411.182160209319
 0.0011399217221135 410.216681498883
 0.00114481409001957 409.255541463499
 0.00114970645792564 408.298706983196
 0.0011545988258317 407.346145313886
 0.00115949119373777 406.397824081608
 0.00116438356164384 405.45371127689
 0.0011692759295499 404.513775249223
 0.00117416829745597 403.57798470163
 0.00117906066536204 402.64630868535
 0.0011839530332681 401.718716594618
 0.00118884540117417 400.795178161541
 0.00119373776908023 399.875663451075
 0.0011986301369863 398.960142856097
 0.00120352250489237 398.048587092564
 0.00120841487279843 397.140967194766
 0.0012133072407045 396.23725451067
 0.00121819960861057 395.337420697341
 0.00122309197651663 394.441437716455
 0.0012279843444227 393.549277829895
 0.00123287671232877 392.660913595418
 0.00123776908023483 391.776317862415
 0.0012426614481409 390.895463767734
 0.00124755381604697 390.018324731586
 0.00125244618395303 389.144874453526
 0.0012573385518591 388.275086908501
 0.00126223091976517 387.40893634297
 0.00126712328767123 386.546397271095
 0.0012720156555773 385.687444470998
 0.00127690802348337 384.832052981084
 0.00128180039138943 383.980198096428
 0.0012866927592955 383.13185536523
 0.00129158512720157 382.287000585324
 0.00129647749510763 381.44560980075
 0.0013013698630137 380.607659298394
 0.00130626223091977 379.773125604672
 0.00131115459882583 378.941985482285
 0.0013160469667319 378.114215927014
 0.00132093933463796 377.289794164587
 0.00132583170254403 376.468697647585
 0.0013307240704501 375.650904052409
 0.00133561643835616 374.836391276292
 0.00134050880626223 374.02513743437
 0.0013454011741683 373.21712085679
 0.00135029354207436 372.41232008588
 0.00135518590998043 371.610713873353
 0.0013600782778865 370.812281177565
 0.00136497064579256 370.017001160821
 0.00136986301369863 369.224853186715
 0.0013747553816047 368.435816817523
 0.00137964774951076 367.649871811635
 0.00138454011741683 366.866998121031
 0.0013894324853229 366.087175888792
 0.00139432485322896 365.310385446659
 0.00139921722113503 364.536607312627
 0.0014041095890411 363.765822188578
 0.00140900195694716 362.998010957955
 0.00141389432485323 362.233154683467
 0.0014187866927593 361.471234604835
 0.00142367906066536 360.712232136576
 0.00142857142857143 359.956128865815
 0.0014334637964775 359.202906550139
 0.00143835616438356 358.452547115478
 0.00144324853228963 357.705032654023
 0.00144814090019569 356.960345422177
 0.00145303326810176 356.218467838536
 0.00145792563600783 355.479382481902
 0.00146281800391389 354.743072089325
 0.00146771037181996 354.009519554178
 0.00147260273972603 353.278707924261
 0.00147749510763209 352.550620399932
 0.00148238747553816 351.825240332267
 0.00148727984344423 351.102551221252
 0.00149217221135029 350.382536713994
 0.00149706457925636 349.665180602968
 0.00150195694716243 348.950466824284
 0.00150684931506849 348.238379455985
 0.00151174168297456 347.528902716366
 0.00151663405088063 346.82202096232
 0.00152152641878669 346.117718687707
 0.00152641878669276 345.415980521754
 0.00153131115459883 344.716791227466
 0.00153620352250489 344.020135700074
 0.00154109589041096 343.325998965495
 0.00154598825831703 342.634366178822
 0.00155088062622309 341.94522262283
 0.00155577299412916 341.258553706511
 0.00156066536203523 340.57434496362
 0.00156555772994129 339.892582051254
 0.00157045009784736 339.213250748441
 0.00157534246575342 338.536336954755
 0.00158023483365949 337.861826688953
 0.00158512720156556 337.18970608762
 0.00159001956947162 336.51996140385
 0.00159491193737769 335.85257900593
 0.00159980430528376 335.187545376055
 0.00160469667318982 334.524847109052
 0.00160958904109589 333.864470911126
 0.00161448140900196 333.206403598625
 0.00161937377690802 332.550632096821
 0.00162426614481409 331.897143438704
 0.00162915851272016 331.245924763799
 0.00163405088062622 330.596963316996
 0.00163894324853229 329.950246447396
 0.00164383561643836 329.305761607175
 0.00164872798434442 328.663496350463
 0.00165362035225049 328.023438332233
 0.00165851272015656 327.385575307217
 0.00166340508806262 326.749895128823
 0.00166829745596869 326.116385748077
 0.00167318982387476 325.485035212574
 0.00167808219178082 324.855831665448
 0.00168297455968689 324.228763344346
 0.00168786692759296 323.603818580429
 0.00169275929549902 322.980985797378
 0.00169765166340509 322.360253510412
 0.00170254403131115 321.741610325325
 0.00170743639921722 321.125044937534
 0.00171232876712329 320.510546131136
 0.00171722113502935 319.89810277798
 0.00172211350293542 319.287703836752
 0.00172700587084149 318.679338352073
 0.00173189823874755 318.072995453604
 0.00173679060665362 317.468664355167
 0.00174168297455969 316.866334353875
 0.00174657534246575 316.265994829277
 0.00175146771037182 315.667635242509
 0.00175636007827789 315.07124513546
 0.00176125244618395 314.476814129946
 0.00176614481409002 313.884331926897
 0.00177103718199609 313.293788305552
 0.00177592954990215 312.705173122667
 0.00178082191780822 312.11847631173
 0.00178571428571429 311.533687882187
 0.00179060665362035 310.950797918682
 0.00179549902152642 310.3697965803
 0.00180039138943249 309.790674099823
 0.00180528375733855 309.213420782993
 0.00181017612524462 308.638027007793
 0.00181506849315068 308.064483223719
 0.00181996086105675 307.492779951084
 0.00182485322896282 306.922907780311
 0.00182974559686888 306.354857371243
 0.00183463796477495 305.788619452467
 0.00183953033268102 305.224184820634
 0.00184442270058708 304.661544339797
 0.00184931506849315 304.100688940754
 0.00185420743639922 303.541609620397
 0.00185909980430528 302.984297441075
 0.00186399217221135 302.428743529956
 0.00186888454011742 301.874939078405
 0.00187377690802348 301.322875341366
 0.00187866927592955 300.772543636747
 0.00188356164383562 300.223935344823
 0.00188845401174168 299.677041907639
 0.00189334637964775 299.131854828415
 0.00189823874755382 298.588365670975
 0.00190313111545988 298.046566059162
 0.00190802348336595 297.506447676276
 0.00191291585127202 296.968002264513
 0.00191780821917808 296.431221624409
 0.00192270058708415 295.89609761429
 0.00192759295499022 295.362622149734
 0.00193248532289628 294.830787203037
 0.00193737769080235 294.30058480268
 0.00194227005870841 293.772007032807
 0.00194716242661448 293.245046032714
 0.00195205479452055 292.719693996331
 0.00195694716242661 292.195943171722
 0.00196183953033268 291.673785860586
 0.00196673189823875 291.153214417763
 0.00197162426614481 290.634221250747
 0.00197651663405088 290.116798819204
 0.00198140900195695 289.600939634498
 0.00198630136986301 289.086636259218
 0.00199119373776908 288.573881306714
 0.00199608610567515 288.062667440634
 0.00200097847358121 287.552987374477
 0.00200587084148728 287.044833871133
 0.00201076320939335 286.538199742448
 0.00201565557729941 286.033077848777
 0.00202054794520548 285.529461098557
 0.00202544031311155 285.027342447868
 0.00203033268101761 284.526714900019
 0.00203522504892368 284.027571505118
 0.00204011741682975 283.529905359664
 0.00204500978473581 283.033709606132
 0.00204990215264188 282.538977432569
 0.00205479452054795 282.045702072189
 0.00205968688845401 281.553876802983
 0.00206457925636008 281.063494947317
 0.00206947162426614 280.57454987155
 0.00207436399217221 280.087034985647
 0.00207925636007828 279.6009437428
 0.00208414872798434 279.116269639051
 0.00208904109589041 278.633006212923
 0.00209393346379648 278.151147045047
 0.00209882583170254 277.670685757805
 0.00210371819960861 277.191616014962
 0.00210861056751468 276.71393152132
 0.00211350293542074 276.237626022357
 0.00211839530332681 275.762693303883
 0.00212328767123288 275.289127191696
 0.00212818003913894 274.816921551238
 0.00213307240704501 274.346070287261
 0.00213796477495108 273.876567343492
 0.00214285714285714 273.408406702303
 0.00214774951076321 272.941582384384
 0.00215264187866928 272.476088448419
 0.00215753424657534 272.011918990771
 0.00216242661448141 271.549068145159
 0.00216731898238748 271.087530082351
 0.00217221135029354 270.627299009848
 0.00217710371819961 270.168369171585
 0.00218199608610567 269.710734847622
 0.00218688845401174 269.254390353845
 0.00219178082191781 268.799330041672
 0.00219667318982388 268.345548297754
 0.00220156555772994 267.89303954369
 0.00220645792563601 267.441798235734
 0.00221135029354207 266.991818864515
 0.00221624266144814 266.543095954748
 0.00222113502935421 266.095624064965
 0.00222602739726027 265.64939778723
 0.00223091976516634 265.204411746868
 0.00223581213307241 264.760660602198
 0.00224070450097847 264.318139044261
 0.00224559686888454 263.876841796558
 0.00225048923679061 263.436763614784
 0.00225538160469667 262.997899286572
 0.00226027397260274 262.560243631233
 0.00226516634050881 262.123791499505
 0.00227005870841487 261.688537773297
 0.00227495107632094 261.254477365442
 0.00227984344422701 260.82160521945
 0.00228473581213307 260.389916309263
 0.00228962818003914 259.959405639012
 0.00229452054794521 259.530068242779
 0.00229941291585127 259.101899184361
 0.00230430528375734 258.674893557032
 0.00230919765166341 258.249046483311
 0.00231409001956947 257.824353114734
 0.00231898238747554 257.400808631625
 0.0023238747553816 256.978408242868
 0.00232876712328767 256.557147185688
 0.00233365949119374 256.137020725426
 0.0023385518590998 255.71802415532
 0.00234344422700587 255.300152796289
 0.00234833659491194 254.883401996721
 0.002353228962818 254.467767132254
 0.00235812133072407 254.053243605569
 0.00236301369863014 253.639826846182
 0.0023679060665362 253.227512310234
 0.00237279843444227 252.816295480292
 0.00237769080234834 252.406171865139
 0.0023825831702544 251.997136999577
 0.00238747553816047 251.589186444231
 0.00239236790606654 251.182315785346
 0.0023972602739726 250.776520634597
 0.00240215264187867 250.371796628891
 0.00240704500978474 249.968139430181
 0.0024119373776908 249.565544725273
 0.00241682974559687 249.164008225638
 0.00242172211350294 248.763525667228
 0.002426614481409 248.364092810291
 0.00243150684931507 247.965705439186
 0.00243639921722113 247.568359362206
 0.0024412915851272 247.172050411399
 0.00244618395303327 246.776774442385
 0.00245107632093933 246.382527334188
 0.0024559686888454 245.989304989055
 0.00246086105675147 245.597103332289
 0.00246575342465753 245.205918312072
 0.0024706457925636 244.815745899304
 0.00247553816046967 244.426582087426
 0.00248043052837573 244.038422892262
 0.0024853228962818 243.651264351848
 0.00249021526418787 243.265102526272
 0.00249510763209393 242.879933497513
 0.0025 242.495753369279
